Firmware/Signal_Tap_Logic/Signal_Tap_Logic.sim/sim_1/behav/xsim/dump.vcd
$date
   Tue Oct 19 17:17:29 2021
$end
$version
  2020.2
$end
$timescale
  1ps
$end
$scope module TB_Signal_Tap_Logic $end
$var reg 1 ! TB_clk $end
$var reg 1 " TB_LRCK $end
$var reg 1 # rst $end
$var reg 4 $ phase_Select [3:0] $end
$var wire 8 % ADDR [7:0] $end
$var wire 4 & Write_Channel [3:0] $end
$var wire 1 ' Write_En $end
$var reg 24 ( Trial_DATA [23:0] $end
$var wire 24 ) DATA_0 [23:0] $end
$var wire 24 * DATA_1 [23:0] $end
$var wire 24 + DATA_2 [23:0] $end
$var wire 24 , DATA_3 [23:0] $end
$var wire 24 - DATA_4 [23:0] $end
$var wire 24 . DATA_5 [23:0] $end
$var wire 24 / DATA_6 [23:0] $end
$var wire 24 0 DATA_7 [23:0] $end
$var wire 24 1 DATA_8 [23:0] $end
$var wire 24 2 DATA_9 [23:0] $end
$var wire 24 3 DATA_10 [23:0] $end
$var wire 24 4 DATA_11 [23:0] $end
$var wire 24 5 DATA_12 [23:0] $end
$var wire 24 6 DATA_13 [23:0] $end
$var wire 24 7 DATA_14 [23:0] $end
$var wire 24 8 DATA_15 [23:0] $end
$scope module DUT $end
$var wire 1 9 LRCK $end
$var wire 1 : nReset $end
$var wire 1 ; MCK $end
$var wire 4 < Phase_Select [3:0] $end
$var reg 4 = Write_Channel [3:0] $end
$var reg 1 > Write_En $end
$var reg 8 ? Read_Addr [7:0] $end
$var reg 6 @ State [5:0] $end
$var wire 1 A Reset_Flag $end
$upscope $end
$scope module DUT2 $end
$var wire 1 B MCK_in $end
$var wire 1 C nReset $end
$var wire 4 & Channel_Sel [3:0] $end
$var wire 1 ' Write_En $end
$var wire 24 D DATA_in [23:0] $end
$var wire 24 ) DATA_out_0 [23:0] $end
$var wire 24 * DATA_out_1 [23:0] $end
$var wire 24 + DATA_out_2 [23:0] $end
$var wire 24 , DATA_out_3 [23:0] $end
$var wire 24 - DATA_out_4 [23:0] $end
$var wire 24 . DATA_out_5 [23:0] $end
$var wire 24 / DATA_out_6 [23:0] $end
$var wire 24 0 DATA_out_7 [23:0] $end
$var wire 24 1 DATA_out_8 [23:0] $end
$var wire 24 2 DATA_out_9 [23:0] $end
$var wire 24 3 DATA_out_10 [23:0] $end
$var wire 24 4 DATA_out_11 [23:0] $end
$var wire 24 5 DATA_out_12 [23:0] $end
$var wire 24 6 DATA_out_13 [23:0] $end
$var wire 24 7 DATA_out_14 [23:0] $end
$var wire 24 8 DATA_out_15 [23:0] $end
$var integer 32 E i $end
$upscope $end
$upscope $end
$enddefinitions $end
#0
$dumpvars
0!
0"
1#
b0 $
bx %
bx &
x'
b0 (
bx )
bx *
bx +
bx ,
bx -
bx .
bx /
bx 0
bx 1
bx 2
bx 3
bx 4
bx 5
bx 6
bx 7
bx 8
09
1:
0;
b0 <
bx =
x>
bx ?
bx @
1A
0B
1C
b0 D
bx E
$end
#1000
1!
b0 %
0'
b1 (
b0 )
b0 *
b0 +
b0 ,
b0 -
b0 .
b0 /
b0 0
b0 1
b0 2
b0 3
b0 4
b0 5
b0 6
b0 7
b0 8
1;
bx =
0>
b0 ?
b10000 @
1B
b1 D
#2000
0!
0;
0B
#3000
1!
b0 &
b10 (
1;
b0 =
0>
b0 ?
b10000 @
1B
b10 D
#4000
0!
0#
0:
0;
0A
0B
0C
#5000
1!
b11 (
1;
b0 =
0>
b0 ?
b0 @
1B
b11 D
#6000
0!
0;
0B
#7000
1!
1'
b100 (
1;
b0 =
1>
b0 ?
b1 @
1B
b100 D
#8000
0!
0;
0B
#9000
1!
b1 &
b101 (
b100 )
1;
b1 =
1>
b0 ?
b10 @
1B
b101 D
b10000 E
#10000
0!
0;
0B
#11000
1!
b10 &
b110 (
b101 *
1;
b10 =
1>
b0 ?
b11 @
1B
b110 D
b10000 E
#12000
0!
0;
0B
#13000
1!
b11 &
b111 (
b110 +
1;
b11 =
1>
b0 ?
b100 @
1B
b111 D
b10000 E
#14000
0!
0;
0B
#15000
1!
b100 &
b1000 (
b111 ,
1;
b100 =
1>
b0 ?
b101 @
1B
b1000 D
b10000 E
#16000
0!
0;
0B
#17000
1!
b101 &
b1001 (
b1000 -
1;
b101 =
1>
b0 ?
b110 @
1B
b1001 D
b10000 E
#18000
0!
0;
0B
#19000
1!
b110 &
b1010 (
b1001 .
1;
b110 =
1>
b0 ?
b111 @
1B
b1010 D
b10000 E
#20000
0!
0;
0B
#21000
1!
b111 &
b1011 (
b1010 /
1;
b111 =
1>
b0 ?
b1000 @
1B
b1011 D
b10000 E
#22000
0!
0;
0B
#23000
1!
b1000 &
b1100 (
b1011 0
1;
b1000 =
1>
b0 ?
b1001 @
1B
b1100 D
b10000 E
#24000
0!
0;
0B
#25000
1!
b1001 &
b1101 (
b1100 1
1;
b1001 =
1>
b0 ?
b1010 @
1B
b1101 D
b10000 E
#26000
0!
0;
0B
#27000
1!
b1010 &
b1110 (
b1101 2
1;
b1010 =
1>
b0 ?
b1011 @
1B
b1110 D
b10000 E
#28000
0!
0;
0B
#29000
1!
b1011 &
b1111 (
b1110 3
1;
b1011 =
1>
b0 ?
b1100 @
1B
b1111 D
b10000 E
#30000
0!
0;
0B
#31000
1!
b1100 &
b10000 (
b1111 4
1;
b1100 =
1>
b0 ?
b1101 @
1B
b10000 D
b10000 E
#32000
0!
0;
0B
#33000
1!
b1101 &
b10001 (
b10000 5
1;
b1101 =
1>
b0 ?
b1110 @
1B
b10001 D
b10000 E
#34000
0!
0;
0B
#35000
1!
b1110 &
b10010 (
b10001 6
1;
b1110 =
1>
b0 ?
b1111 @
1B
b10010 D
b10000 E
#36000
0!
0;
0B
#37000
1!
b1111 &
b10011 (
b10010 7
1;
b1111 =
1>
b0 ?
b10001 @
1B
b10011 D
b10000 E
#38000
0!
0;
0B
#39000
1!
b1 &
0'
b10100 (
b10011 8
1;
b1 =
0>
b0 ?
b10001 @
1B
b10100 D
b10000 E
#40000
0!
0;
0B
#41000
1!
b10101 (
1;
b1 =
0>
b0 ?
b10001 @
1B
b10101 D
#42000
0!
0;
0B
#43000
1!
b10110 (
1;
b1 =
0>
b0 ?
b10001 @
1B
b10110 D
#44000
0!
0;
0B
#45000
1!
b10111 (
1;
b1 =
0>
b0 ?
b10001 @
1B
b10111 D
#46000
0!
0;
0B
#47000
1!
b11000 (
1;
b1 =
0>
b0 ?
b10001 @
1B
b11000 D
#48000
0!
0;
0B
#49000
1!
b11001 (
1;
b1 =
0>
b0 ?
b10001 @
1B
b11001 D
#50000
0!
0;
0B
#51000
1!
b11010 (
1;
b1 =
0>
b0 ?
b10001 @
1B
b11010 D
#52000
0!
0;
0B
#53000
1!
b11011 (
1;
b1 =
0>
b0 ?
b10001 @
1B
b11011 D
#54000
0!
0;
0B
#55000
1!
b11100 (
1;
b1 =
0>
b0 ?
b10001 @
1B
b11100 D
#56000
0!
0;
0B
#57000
1!
b11101 (
1;
b1 =
0>
b0 ?
b10001 @
1B
b11101 D
#58000
0!
0;
0B
#59000
1!
b11110 (
1;
b1 =
0>
b0 ?
b10001 @
1B
b11110 D
#60000
0!
0;
0B
#61000
1!
b11111 (
1;
b1 =
0>
b0 ?
b10001 @
1B
b11111 D
#62000
0!
0;
0B
#63000
1!
b100000 (
1;
b1 =
0>
b0 ?
b10001 @
1B
b100000 D
#64000
0!
1"
b1 $
19
0;
b1 <
1A
0B
#65000
1!
b100001 (
1;
b1 =
0>
b0 ?
b10000 @
1B
b100001 D
#66000
0!
0;
0B
#67000
1!
b0 &
b100010 (
1;
b0 =
0>
b0 ?
b10000 @
1B
b100010 D
#68000
0!
0;
0B
#69000
1!
b100011 (
1;
b0 =
0>
b0 ?
b10000 @
1B
b100011 D
#70000
0!
0;
0B
#71000
1!
b100100 (
1;
b0 =
0>
b0 ?
b10000 @
1B
b100100 D
#72000
0!
0;
0B
#73000
1!
b100101 (
1;
b0 =
0>
b0 ?
b10000 @
1B
b100101 D
#74000
0!
0;
0B
#75000
1!
b100110 (
1;
b0 =
0>
b0 ?
b10000 @
1B
b100110 D
#76000
0!
0;
0B
#77000
1!
b100111 (
1;
b0 =
0>
b0 ?
b10000 @
1B
b100111 D
#78000
0!
0;
0B
#79000
1!
b101000 (
1;
b0 =
0>
b0 ?
b10000 @
1B
b101000 D
#80000
0!
0;
0B
#81000
1!
b101001 (
1;
b0 =
0>
b0 ?
b10000 @
1B
b101001 D
#82000
0!
0;
0B
#83000
1!
b101010 (
1;
b0 =
0>
b0 ?
b10000 @
1B
b101010 D
#84000
0!
0;
0B
#85000
1!
b101011 (
1;
b0 =
0>
b0 ?
b10000 @
1B
b101011 D
#86000
0!
0;
0B
#87000
1!
b101100 (
1;
b0 =
0>
b0 ?
b10000 @
1B
b101100 D
#88000
0!
0;
0B
#89000
1!
b101101 (
1;
b0 =
0>
b0 ?
b10000 @
1B
b101101 D
#90000
0!
0;
0B
#91000
1!
b101110 (
1;
b0 =
0>
b0 ?
b10000 @
1B
b101110 D
#92000
0!
0;
0B
#93000
1!
b101111 (
1;
b0 =
0>
b0 ?
b10000 @
1B
b101111 D
#94000
0!
0;
0B
#95000
1!
b110000 (
1;
b0 =
0>
b0 ?
b10000 @
1B
b110000 D
#96000
0!
0;
0B
#97000
1!
b110001 (
1;
b0 =
0>
b0 ?
b10000 @
1B
b110001 D
#98000
0!
0;
0B
#99000
1!
b110010 (
1;
b0 =
0>
b0 ?
b10000 @
1B
b110010 D
#100000
0!
0;
0B
#101000
1!
b110011 (
1;
b0 =
0>
b0 ?
b10000 @
1B
b110011 D
#102000
0!
0;
0B
#103000
1!
b110100 (
1;
b0 =
0>
b0 ?
b10000 @
1B
b110100 D
#104000
0!
0;
0B
#105000
1!
b110101 (
1;
b0 =
0>
b0 ?
b10000 @
1B
b110101 D
#106000
0!
0;
0B
#107000
1!
b110110 (
1;
b0 =
0>
b0 ?
b10000 @
1B
b110110 D
#108000
0!
0;
0B
#109000
1!
b110111 (
1;
b0 =
0>
b0 ?
b10000 @
1B
b110111 D
#110000
0!
0;
0B
#111000
1!
b111000 (
1;
b0 =
0>
b0 ?
b10000 @
1B
b111000 D
#112000
0!
0;
0B
#113000
1!
b111001 (
1;
b0 =
0>
b0 ?
b10000 @
1B
b111001 D
#114000
0!
0;
0B
#115000
1!
b111010 (
1;
b0 =
0>
b0 ?
b10000 @
1B
b111010 D
#116000
0!
0;
0B
#117000
1!
b111011 (
1;
b0 =
0>
b0 ?
b10000 @
1B
b111011 D
#118000
0!
0;
0B
#119000
1!
b111100 (
1;
b0 =
0>
b0 ?
b10000 @
1B
b111100 D
#120000
0!
0;
0B
#121000
1!
b111101 (
1;
b0 =
0>
b0 ?
b10000 @
1B
b111101 D
#122000
0!
0;
0B
#123000
1!
b111110 (
1;
b0 =
0>
b0 ?
b10000 @
1B
b111110 D
#124000
0!
0;
0B
#125000
1!
b111111 (
1;
b0 =
0>
b0 ?
b10000 @
1B
b111111 D
#126000
0!
0;
0B
#127000
1!
b1000000 (
1;
b0 =
0>
b0 ?
b10000 @
1B
b1000000 D
#128000
0!
0"
09
0;
0A
0B
#129000
1!
b1000001 (
1;
b0 =
0>
b0 ?
b0 @
1B
b1000001 D
#130000
0!
0;
0B
#131000
1!
1'
b1000010 (
1;
b0 =
1>
b0 ?
b1 @
1B
b1000010 D
#132000
0!
0;
0B
#133000
1!
b1 %
b1 &
b1000011 (
b1000010 )
1;
b1 =
1>
b1 ?
b10 @
1B
b1000011 D
b10000 E
#134000
0!
0;
0B
#135000
1!
b10 %
b10 &
b1000100 (
b1000011 *
1;
b10 =
1>
b10 ?
b11 @
1B
b1000100 D
b10000 E
#136000
0!
0;
0B
#137000
1!
b11 %
b11 &
b1000101 (
b1000100 +
1;
b11 =
1>
b11 ?
b100 @
1B
b1000101 D
b10000 E
#138000
0!
0;
0B
#139000
1!
b100 %
b100 &
b1000110 (
b1000101 ,
1;
b100 =
1>
b100 ?
b101 @
1B
b1000110 D
b10000 E
#140000
0!
0;
0B
#141000
1!
b101 %
b101 &
b1000111 (
b1000110 -
1;
b101 =
1>
b101 ?
b110 @
1B
b1000111 D
b10000 E
#142000
0!
0;
0B
#143000
1!
b110 %
b110 &
b1001000 (
b1000111 .
1;
b110 =
1>
b110 ?
b111 @
1B
b1001000 D
b10000 E
#144000
0!
0;
0B
#145000
1!
b111 %
b111 &
b1001001 (
b1001000 /
1;
b111 =
1>
b111 ?
b1000 @
1B
b1001001 D
b10000 E
#146000
0!
0;
0B
#147000
1!
b1000 %
b1000 &
b1001010 (
b1001001 0
1;
b1000 =
1>
b1000 ?
b1001 @
1B
b1001010 D
b10000 E
#148000
0!
0;
0B
#149000
1!
b1001 %
b1001 &
b1001011 (
b1001010 1
1;
b1001 =
1>
b1001 ?
b1010 @
1B
b1001011 D
b10000 E
#150000
0!
0;
0B
#151000
1!
b1010 %
b1010 &
b1001100 (
b1001011 2
1;
b1010 =
1>
b1010 ?
b1011 @
1B
b1001100 D
b10000 E
#152000
0!
0;
0B
#153000
1!
b1011 %
b1011 &
b1001101 (
b1001100 3
1;
b1011 =
1>
b1011 ?
b1100 @
1B
b1001101 D
b10000 E
#154000
0!
0;
0B
#155000
1!
b1100 %
b1100 &
b1001110 (
b1001101 4
1;
b1100 =
1>
b1100 ?
b1101 @
1B
b1001110 D
b10000 E
#156000
0!
0;
0B
#157000
1!
b1101 %
b1101 &
b1001111 (
b1001110 5
1;
b1101 =
1>
b1101 ?
b1110 @
1B
b1001111 D
b10000 E
#158000
0!
0;
0B
#159000
1!
b1110 %
b1110 &
b1010000 (
b1001111 6
1;
b1110 =
1>
b1110 ?
b1111 @
1B
b1010000 D
b10000 E
#160000
0!
0;
0B
#161000
1!
b1111 %
b1111 &
b1010001 (
b1010000 7
1;
b1111 =
1>
b1111 ?
b10001 @
1B
b1010001 D
b10000 E
#162000
0!
0;
0B
#163000
1!
b0 %
b1 &
0'
b1010010 (
b1010001 8
1;
b1 =
0>
b0 ?
b10001 @
1B
b1010010 D
b10000 E
#164000
0!
0;
0B
#165000
1!
b1010011 (
1;
b1 =
0>
b0 ?
b10001 @
1B
b1010011 D
#166000
0!
0;
0B
#167000
1!
b1010100 (
1;
b1 =
0>
b0 ?
b10001 @
1B
b1010100 D
#168000
0!
0;
0B
#169000
1!
b1010101 (
1;
b1 =
0>
b0 ?
b10001 @
1B
b1010101 D
#170000
0!
0;
0B
#171000
1!
b1010110 (
1;
b1 =
0>
b0 ?
b10001 @
1B
b1010110 D
#172000
0!
0;
0B
#173000
1!
b1010111 (
1;
b1 =
0>
b0 ?
b10001 @
1B
b1010111 D
#174000
0!
0;
0B
#175000
1!
b1011000 (
1;
b1 =
0>
b0 ?
b10001 @
1B
b1011000 D
#176000
0!
0;
0B
#177000
1!
b1011001 (
1;
b1 =
0>
b0 ?
b10001 @
1B
b1011001 D
#178000
0!
0;
0B
#179000
1!
b1011010 (
1;
b1 =
0>
b0 ?
b10001 @
1B
b1011010 D
#180000
0!
0;
0B
#181000
1!
b1011011 (
1;
b1 =
0>
b0 ?
b10001 @
1B
b1011011 D
#182000
0!
0;
0B
#183000
1!
b1011100 (
1;
b1 =
0>
b0 ?
b10001 @
1B
b1011100 D
#184000
0!
0;
0B
#185000
1!
b1011101 (
1;
b1 =
0>
b0 ?
b10001 @
1B
b1011101 D
#186000
0!
0;
0B
#187000
1!
b1011110 (
1;
b1 =
0>
b0 ?
b10001 @
1B
b1011110 D
#188000
0!
0;
0B
#189000
1!
b1011111 (
1;
b1 =
0>
b0 ?
b10001 @
1B
b1011111 D
#190000
0!
0;
0B
#191000
1!
b1100000 (
1;
b1 =
0>
b0 ?
b10001 @
1B
b1100000 D
#192000
0!
1"
b10 $
19
0;
b10 <
1A
0B
#193000
1!
b1100001 (
1;
b1 =
0>
b0 ?
b10000 @
1B
b1100001 D
#194000
0!
0;
0B
#195000
1!
b0 &
b1100010 (
1;
b0 =
0>
b0 ?
b10000 @
1B
b1100010 D
#196000
0!
0;
0B
#197000
1!
b1100011 (
1;
b0 =
0>
b0 ?
b10000 @
1B
b1100011 D
#198000
0!
0;
0B
#199000
1!
b1100100 (
1;
b0 =
0>
b0 ?
b10000 @
1B
b1100100 D
#200000
0!
0;
0B
#201000
1!
b1100101 (
1;
b0 =
0>
b0 ?
b10000 @
1B
b1100101 D
#202000
0!
0;
0B
#203000
1!
b1100110 (
1;
b0 =
0>
b0 ?
b10000 @
1B
b1100110 D
#204000
0!
0;
0B
#205000
1!
b1100111 (
1;
b0 =
0>
b0 ?
b10000 @
1B
b1100111 D
#206000
0!
0;
0B
#207000
1!
b1101000 (
1;
b0 =
0>
b0 ?
b10000 @
1B
b1101000 D
#208000
0!
0;
0B
#209000
1!
b1101001 (
1;
b0 =
0>
b0 ?
b10000 @
1B
b1101001 D
#210000
0!
0;
0B
#211000
1!
b1101010 (
1;
b0 =
0>
b0 ?
b10000 @
1B
b1101010 D
#212000
0!
0;
0B
#213000
1!
b1101011 (
1;
b0 =
0>
b0 ?
b10000 @
1B
b1101011 D
#214000
0!
0;
0B
#215000
1!
b1101100 (
1;
b0 =
0>
b0 ?
b10000 @
1B
b1101100 D
#216000
0!
0;
0B
#217000
1!
b1101101 (
1;
b0 =
0>
b0 ?
b10000 @
1B
b1101101 D
#218000
0!
0;
0B
#219000
1!
b1101110 (
1;
b0 =
0>
b0 ?
b10000 @
1B
b1101110 D
#220000
0!
0;
0B
#221000
1!
b1101111 (
1;
b0 =
0>
b0 ?
b10000 @
1B
b1101111 D
#222000
0!
0;
0B
#223000
1!
b1110000 (
1;
b0 =
0>
b0 ?
b10000 @
1B
b1110000 D
#224000
0!
0;
0B
#225000
1!
b1110001 (
1;
b0 =
0>
b0 ?
b10000 @
1B
b1110001 D
#226000
0!
0;
0B
#227000
1!
b1110010 (
1;
b0 =
0>
b0 ?
b10000 @
1B
b1110010 D
#228000
0!
0;
0B
#229000
1!
b1110011 (
1;
b0 =
0>
b0 ?
b10000 @
1B
b1110011 D
#230000
0!
0;
0B
#231000
1!
b1110100 (
1;
b0 =
0>
b0 ?
b10000 @
1B
b1110100 D
#232000
0!
0;
0B
#233000
1!
b1110101 (
1;
b0 =
0>
b0 ?
b10000 @
1B
b1110101 D
#234000
0!
0;
0B
#235000
1!
b1110110 (
1;
b0 =
0>
b0 ?
b10000 @
1B
b1110110 D
#236000
0!
0;
0B
#237000
1!
b1110111 (
1;
b0 =
0>
b0 ?
b10000 @
1B
b1110111 D
#238000
0!
0;
0B
#239000
1!
b1111000 (
1;
b0 =
0>
b0 ?
b10000 @
1B
b1111000 D
#240000
0!
0;
0B
#241000
1!
b1111001 (
1;
b0 =
0>
b0 ?
b10000 @
1B
b1111001 D
#242000
0!
0;
0B
#243000
1!
b1111010 (
1;
b0 =
0>
b0 ?
b10000 @
1B
b1111010 D
#244000
0!
0;
0B
#245000
1!
b1111011 (
1;
b0 =
0>
b0 ?
b10000 @
1B
b1111011 D
#246000
0!
0;
0B
#247000
1!
b1111100 (
1;
b0 =
0>
b0 ?
b10000 @
1B
b1111100 D
#248000
0!
0;
0B
#249000
1!
b1111101 (
1;
b0 =
0>
b0 ?
b10000 @
1B
b1111101 D
#250000
0!
0;
0B
#251000
1!
b1111110 (
1;
b0 =
0>
b0 ?
b10000 @
1B
b1111110 D
#252000
0!
0;
0B
#253000
1!
b1111111 (
1;
b0 =
0>
b0 ?
b10000 @
1B
b1111111 D
#254000
0!
0;
0B
#255000
1!
b10000000 (
1;
b0 =
0>
b0 ?
b10000 @
1B
b10000000 D
#256000
0!
0"
09
0;
0A
0B
#257000
1!
b10000001 (
1;
b0 =
0>
b0 ?
b0 @
1B
b10000001 D
#258000
0!
0;
0B
#259000
1!
1'
b10000010 (
1;
b0 =
1>
b0 ?
b1 @
1B
b10000010 D
#260000
0!
0;
0B
#261000
1!
b10 %
b1 &
b10000011 (
b10000010 )
1;
b1 =
1>
b10 ?
b10 @
1B
b10000011 D
b10000 E
#262000
0!
0;
0B
#263000
1!
b100 %
b10 &
b10000100 (
b10000011 *
1;
b10 =
1>
b100 ?
b11 @
1B
b10000100 D
b10000 E
#264000
0!
0;
0B
#265000
1!
b110 %
b11 &
b10000101 (
b10000100 +
1;
b11 =
1>
b110 ?
b100 @
1B
b10000101 D
b10000 E
#266000
0!
0;
0B
#267000
1!
b1000 %
b100 &
b10000110 (
b10000101 ,
1;
b100 =
1>
b1000 ?
b101 @
1B
b10000110 D
b10000 E
#268000
0!
0;
0B
#269000
1!
b1010 %
b101 &
b10000111 (
b10000110 -
1;
b101 =
1>
b1010 ?
b110 @
1B
b10000111 D
b10000 E
#270000
0!
0;
0B
#271000
1!
b1100 %
b110 &
b10001000 (
b10000111 .
1;
b110 =
1>
b1100 ?
b111 @
1B
b10001000 D
b10000 E
#272000
0!
0;
0B
#273000
1!
b1110 %
b111 &
b10001001 (
b10001000 /
1;
b111 =
1>
b1110 ?
b1000 @
1B
b10001001 D
b10000 E
#274000
0!
0;
0B
#275000
1!
b10000 %
b1000 &
b10001010 (
b10001001 0
1;
b1000 =
1>
b10000 ?
b1001 @
1B
b10001010 D
b10000 E
#276000
0!
0;
0B
#277000
1!
b10010 %
b1001 &
b10001011 (
b10001010 1
1;
b1001 =
1>
b10010 ?
b1010 @
1B
b10001011 D
b10000 E
#278000
0!
0;
0B
#279000
1!
b10100 %
b1010 &
b10001100 (
b10001011 2
1;
b1010 =
1>
b10100 ?
b1011 @
1B
b10001100 D
b10000 E
#280000
0!
0;
0B
#281000
1!
b10110 %
b1011 &
b10001101 (
b10001100 3
1;
b1011 =
1>
b10110 ?
b1100 @
1B
b10001101 D
b10000 E
#282000
0!
0;
0B
#283000
1!
b11000 %
b1100 &
b10001110 (
b10001101 4
1;
b1100 =
1>
b11000 ?
b1101 @
1B
b10001110 D
b10000 E
#284000
0!
0;
0B
#285000
1!
b11010 %
b1101 &
b10001111 (
b10001110 5
1;
b1101 =
1>
b11010 ?
b1110 @
1B
b10001111 D
b10000 E
#286000
0!
0;
0B
#287000
1!
b11100 %
b1110 &
b10010000 (
b10001111 6
1;
b1110 =
1>
b11100 ?
b1111 @
1B
b10010000 D
b10000 E
#288000
0!
0;
0B
#289000
1!
b11110 %
b1111 &
b10010001 (
b10010000 7
1;
b1111 =
1>
b11110 ?
b10001 @
1B
b10010001 D
b10000 E
#290000
0!
0;
0B
#291000
1!
b0 %
b1 &
0'
b10010010 (
b10010001 8
1;
b1 =
0>
b0 ?
b10001 @
1B
b10010010 D
b10000 E
#292000
0!
0;
0B
#293000
1!
b10010011 (
1;
b1 =
0>
b0 ?
b10001 @
1B
b10010011 D
#294000
0!
0;
0B
#295000
1!
b10010100 (
1;
b1 =
0>
b0 ?
b10001 @
1B
b10010100 D
#296000
0!
0;
0B
#297000
1!
b10010101 (
1;
b1 =
0>
b0 ?
b10001 @
1B
b10010101 D
#298000
0!
0;
0B
#299000
1!
b10010110 (
1;
b1 =
0>
b0 ?
b10001 @
1B
b10010110 D
#300000
0!
0;
0B
#301000
1!
b10010111 (
1;
b1 =
0>
b0 ?
b10001 @
1B
b10010111 D
#302000
0!
0;
0B
#303000
1!
b10011000 (
1;
b1 =
0>
b0 ?
b10001 @
1B
b10011000 D
#304000
0!
0;
0B
#305000
1!
b10011001 (
1;
b1 =
0>
b0 ?
b10001 @
1B
b10011001 D
#306000
0!
0;
0B
#307000
1!
b10011010 (
1;
b1 =
0>
b0 ?
b10001 @
1B
b10011010 D
#308000
0!
0;
0B
#309000
1!
b10011011 (
1;
b1 =
0>
b0 ?
b10001 @
1B
b10011011 D
#310000
0!
0;
0B
#311000
1!
b10011100 (
1;
b1 =
0>
b0 ?
b10001 @
1B
b10011100 D
#312000
0!
0;
0B
#313000
1!
b10011101 (
1;
b1 =
0>
b0 ?
b10001 @
1B
b10011101 D
#314000
0!
0;
0B
#315000
1!
b10011110 (
1;
b1 =
0>
b0 ?
b10001 @
1B
b10011110 D
#316000
0!
0;
0B
#317000
1!
b10011111 (
1;
b1 =
0>
b0 ?
b10001 @
1B
b10011111 D
#318000
0!
0;
0B
#319000
1!
b10100000 (
1;
b1 =
0>
b0 ?
b10001 @
1B
b10100000 D
#320000
0!
1"
b11 $
19
0;
b11 <
1A
0B
#321000
1!
b10100001 (
1;
b1 =
0>
b0 ?
b10000 @
1B
b10100001 D
#322000
0!
0;
0B
#323000
1!
b0 &
b10100010 (
1;
b0 =
0>
b0 ?
b10000 @
1B
b10100010 D
#324000
0!
0;
0B
#325000
1!
b10100011 (
1;
b0 =
0>
b0 ?
b10000 @
1B
b10100011 D
#326000
0!
0;
0B
#327000
1!
b10100100 (
1;
b0 =
0>
b0 ?
b10000 @
1B
b10100100 D
#328000
0!
0;
0B
#329000
1!
b10100101 (
1;
b0 =
0>
b0 ?
b10000 @
1B
b10100101 D
#330000
0!
0;
0B
#331000
1!
b10100110 (
1;
b0 =
0>
b0 ?
b10000 @
1B
b10100110 D
#332000
0!
0;
0B
#333000
1!
b10100111 (
1;
b0 =
0>
b0 ?
b10000 @
1B
b10100111 D
#334000
0!
0;
0B
#335000
1!
b10101000 (
1;
b0 =
0>
b0 ?
b10000 @
1B
b10101000 D
#336000
0!
0;
0B
#337000
1!
b10101001 (
1;
b0 =
0>
b0 ?
b10000 @
1B
b10101001 D
#338000
0!
0;
0B
#339000
1!
b10101010 (
1;
b0 =
0>
b0 ?
b10000 @
1B
b10101010 D
#340000
0!
0;
0B
#341000
1!
b10101011 (
1;
b0 =
0>
b0 ?
b10000 @
1B
b10101011 D
#342000
0!
0;
0B
#343000
1!
b10101100 (
1;
b0 =
0>
b0 ?
b10000 @
1B
b10101100 D
#344000
0!
0;
0B
#345000
1!
b10101101 (
1;
b0 =
0>
b0 ?
b10000 @
1B
b10101101 D
#346000
0!
0;
0B
#347000
1!
b10101110 (
1;
b0 =
0>
b0 ?
b10000 @
1B
b10101110 D
#348000
0!
0;
0B
#349000
1!
b10101111 (
1;
b0 =
0>
b0 ?
b10000 @
1B
b10101111 D
#350000
0!
0;
0B
#351000
1!
b10110000 (
1;
b0 =
0>
b0 ?
b10000 @
1B
b10110000 D
#352000
0!
0;
0B
#353000
1!
b10110001 (
1;
b0 =
0>
b0 ?
b10000 @
1B
b10110001 D
#354000
0!
0;
0B
#355000
1!
b10110010 (
1;
b0 =
0>
b0 ?
b10000 @
1B
b10110010 D
#356000
0!
0;
0B
#357000
1!
b10110011 (
1;
b0 =
0>
b0 ?
b10000 @
1B
b10110011 D
#358000
0!
0;
0B
#359000
1!
b10110100 (
1;
b0 =
0>
b0 ?
b10000 @
1B
b10110100 D
#360000
0!
0;
0B
#361000
1!
b10110101 (
1;
b0 =
0>
b0 ?
b10000 @
1B
b10110101 D
#362000
0!
0;
0B
#363000
1!
b10110110 (
1;
b0 =
0>
b0 ?
b10000 @
1B
b10110110 D
#364000
0!
0;
0B
#365000
1!
b10110111 (
1;
b0 =
0>
b0 ?
b10000 @
1B
b10110111 D
#366000
0!
0;
0B
#367000
1!
b10111000 (
1;
b0 =
0>
b0 ?
b10000 @
1B
b10111000 D
#368000
0!
0;
0B
#369000
1!
b10111001 (
1;
b0 =
0>
b0 ?
b10000 @
1B
b10111001 D
#370000
0!
0;
0B
#371000
1!
b10111010 (
1;
b0 =
0>
b0 ?
b10000 @
1B
b10111010 D
#372000
0!
0;
0B
#373000
1!
b10111011 (
1;
b0 =
0>
b0 ?
b10000 @
1B
b10111011 D
#374000
0!
0;
0B
#375000
1!
b10111100 (
1;
b0 =
0>
b0 ?
b10000 @
1B
b10111100 D
#376000
0!
0;
0B
#377000
1!
b10111101 (
1;
b0 =
0>
b0 ?
b10000 @
1B
b10111101 D
#378000
0!
0;
0B
#379000
1!
b10111110 (
1;
b0 =
0>
b0 ?
b10000 @
1B
b10111110 D
#380000
0!
0;
0B
#381000
1!
b10111111 (
1;
b0 =
0>
b0 ?
b10000 @
1B
b10111111 D
#382000
0!
0;
0B
#383000
1!
b11000000 (
1;
b0 =
0>
b0 ?
b10000 @
1B
b11000000 D
#384000
0!
0"
09
0;
0A
0B
#385000
1!
b11000001 (
1;
b0 =
0>
b0 ?
b0 @
1B
b11000001 D
#386000
0!
0;
0B
#387000
1!
1'
b11000010 (
1;
b0 =
1>
b0 ?
b1 @
1B
b11000010 D
#388000
0!
0;
0B
#389000
1!
b11 %
b1 &
b11000011 (
b11000010 )
1;
b1 =
1>
b11 ?
b10 @
1B
b11000011 D
b10000 E
#390000
0!
0;
0B
#391000
1!
b110 %
b10 &
b11000100 (
b11000011 *
1;
b10 =
1>
b110 ?
b11 @
1B
b11000100 D
b10000 E
#392000
0!
0;
0B
#393000
1!
b1001 %
b11 &
b11000101 (
b11000100 +
1;
b11 =
1>
b1001 ?
b100 @
1B
b11000101 D
b10000 E
#394000
0!
0;
0B
#395000
1!
b1100 %
b100 &
b11000110 (
b11000101 ,
1;
b100 =
1>
b1100 ?
b101 @
1B
b11000110 D
b10000 E
#396000
0!
0;
0B
#397000
1!
b1111 %
b101 &
b11000111 (
b11000110 -
1;
b101 =
1>
b1111 ?
b110 @
1B
b11000111 D
b10000 E
#398000
0!
0;
0B
#399000
1!
b10010 %
b110 &
b11001000 (
b11000111 .
1;
b110 =
1>
b10010 ?
b111 @
1B
b11001000 D
b10000 E
#400000
0!
0;
0B
#401000
1!
b10101 %
b111 &
b11001001 (
b11001000 /
1;
b111 =
1>
b10101 ?
b1000 @
1B
b11001001 D
b10000 E
#402000
0!
0;
0B
#403000
1!
b11000 %
b1000 &
b11001010 (
b11001001 0
1;
b1000 =
1>
b11000 ?
b1001 @
1B
b11001010 D
b10000 E
#404000
0!
0;
0B
