Firmware/PCM_Serializer_2Channel/PCM_Serializer_2Channel.sim/sim_1/behav/xsim/dump.vcd
$date
   Sun Oct 10 15:34:06 2021
$end
$version
  2020.2
$end
$timescale
  1ps
$end
$scope module Serializer_TB $end
$var reg 1 ! TB_SCK $end
$var reg 1 " rst $end
$var wire 1 # MCK $end
$var wire 1 $ BCK $end
$var wire 1 % LRCK $end
$var wire 1 & FIFO_Latch $end
$var wire 1 ' Ready $end
$var wire 32 ( Address_Count [31:0] $end
$var wire 32 ) Alt_Addr_Count [31:0] $end
$var reg 32 * Default_Addr [31:0] $end
$var reg 32 + Other_Addr_Default [31:0] $end
$var wire 64 , FIFO_Content [63:0] $end
$var wire 32 - Data_L [31:0] $end
$var wire 32 . Data_R [31:0] $end
$var wire 1 / ROM_Busy $end
$scope module Clk_Src $end
$var wire 1 0 MCK_in $end
$var wire 1 1 nReset $end
$var wire 1 # MCK $end
$var reg 1 2 LRCK $end
$var reg 1 3 BCK $end
$var reg 1 4 Latch $end
$var reg 1 5 Ready $end
$var reg 8 6 Clock_Counter [7:0] $end
$upscope $end
$scope module Address_Logic $end
$var wire 1 # MCK $end
$var wire 1 7 nReset $end
$var wire 1 ' Incr $end
$var wire 32 8 Default_Addr [31:0] $end
$var reg 32 9 Addr [31:0] $end
$upscope $end
$scope module Address_Logic_Alt $end
$var wire 1 # MCK $end
$var wire 1 : nReset $end
$var wire 1 ' Incr $end
$var wire 32 ; Default_Addr [31:0] $end
$var reg 32 < Addr [31:0] $end
$upscope $end
$scope module ROM_A $end
$var wire 1 = clka $end
$var wire 6 > addra [5:0] $end
$var wire 32 - douta [31:0] $end
$scope module inst $end
$var wire 1 = clka $end
$var wire 1 ? rsta $end
$var wire 1 @ ena $end
$var wire 1 A regcea $end
$var wire 1 B wea [0:0] $end
$var wire 6 > addra [5:0] $end
$var wire 32 C dina [31:0] $end
$var wire 32 - douta [31:0] $end
$var wire 1 D clkb $end
$var wire 1 E rstb $end
$var wire 1 F enb $end
$var wire 1 G regceb $end
$var wire 1 H web [0:0] $end
$var wire 6 I addrb [5:0] $end
$var wire 32 J dinb [31:0] $end
$var wire 32 K doutb [31:0] $end
$var wire 1 L injectsbiterr $end
$var wire 1 M injectdbiterr $end
$var wire 1 N sbiterr $end
$var wire 1 O dbiterr $end
$var wire 6 P rdaddrecc [5:0] $end
$var wire 1 Q eccpipece $end
$var wire 1 R sleep $end
$var wire 1 S deepsleep $end
$var wire 1 T shutdown $end
$var wire 1 U rsta_busy $end
$var wire 1 V rstb_busy $end
$var wire 1 W s_aclk $end
$var wire 1 X s_aresetn $end
$var wire 4 Y s_axi_awid [3:0] $end
$var wire 32 Z s_axi_awaddr [31:0] $end
$var wire 8 [ s_axi_awlen [7:0] $end
$var wire 3 \ s_axi_awsize [2:0] $end
$var wire 2 ] s_axi_awburst [1:0] $end
$var wire 1 ^ s_axi_awvalid $end
$var wire 1 _ s_axi_awready $end
$var wire 32 ` s_axi_wdata [31:0] $end
$var wire 1 a s_axi_wstrb [0:0] $end
$var wire 1 b s_axi_wlast $end
$var wire 1 c s_axi_wvalid $end
$var wire 1 d s_axi_wready $end
$var wire 4 e s_axi_bid [3:0] $end
$var wire 2 f s_axi_bresp [1:0] $end
$var wire 1 g s_axi_bvalid $end
$var wire 1 h s_axi_bready $end
$var wire 4 i s_axi_arid [3:0] $end
$var wire 32 j s_axi_araddr [31:0] $end
$var wire 8 k s_axi_arlen [7:0] $end
$var wire 3 l s_axi_arsize [2:0] $end
$var wire 2 m s_axi_arburst [1:0] $end
$var wire 1 n s_axi_arvalid $end
$var wire 1 o s_axi_arready $end
$var wire 4 p s_axi_rid [3:0] $end
$var wire 32 q s_axi_rdata [31:0] $end
$var wire 2 r s_axi_rresp [1:0] $end
$var wire 1 s s_axi_rlast $end
$var wire 1 t s_axi_rvalid $end
$var wire 1 u s_axi_rready $end
$var wire 1 v s_axi_injectsbiterr $end
$var wire 1 w s_axi_injectdbiterr $end
$var wire 1 x s_axi_sbiterr $end
$var wire 1 y s_axi_dbiterr $end
$var wire 6 z s_axi_rdaddrecc [5:0] $end
$var wire 1 { SBITERR $end
$var wire 1 | DBITERR $end
$var wire 1 } S_AXI_AWREADY $end
$var wire 1 ~ S_AXI_WREADY $end
$var wire 1 !! S_AXI_BVALID $end
$var wire 1 "! S_AXI_ARREADY $end
$var wire 1 #! S_AXI_RLAST $end
$var wire 1 $! S_AXI_RVALID $end
$var wire 1 %! S_AXI_SBITERR $end
$var wire 1 &! S_AXI_DBITERR $end
$var wire 1 '! WEA [0:0] $end
$var wire 6 (! ADDRA [5:0] $end
$var wire 32 )! DINA [31:0] $end
$var wire 32 *! DOUTA [31:0] $end
$var wire 1 +! WEB [0:0] $end
$var wire 6 ,! ADDRB [5:0] $end
$var wire 32 -! DINB [31:0] $end
$var wire 32 .! DOUTB [31:0] $end
$var wire 6 /! RDADDRECC [5:0] $end
$var wire 4 0! S_AXI_AWID [3:0] $end
$var wire 32 1! S_AXI_AWADDR [31:0] $end
$var wire 8 2! S_AXI_AWLEN [7:0] $end
$var wire 3 3! S_AXI_AWSIZE [2:0] $end
$var wire 2 4! S_AXI_AWBURST [1:0] $end
$var wire 32 5! S_AXI_WDATA [31:0] $end
$var wire 1 6! S_AXI_WSTRB [0:0] $end
$var wire 4 7! S_AXI_BID [3:0] $end
$var wire 2 8! S_AXI_BRESP [1:0] $end
$var wire 4 9! S_AXI_ARID [3:0] $end
$var wire 32 :! S_AXI_ARADDR [31:0] $end
$var wire 8 ;! S_AXI_ARLEN [7:0] $end
$var wire 3 <! S_AXI_ARSIZE [2:0] $end
$var wire 2 =! S_AXI_ARBURST [1:0] $end
$var wire 4 >! S_AXI_RID [3:0] $end
$var wire 32 ?! S_AXI_RDATA [31:0] $end
$var wire 2 @! S_AXI_RRESP [1:0] $end
$var wire 6 A! S_AXI_RDADDRECC [5:0] $end
$var wire 1 B! WEB_parameterized [0:0] $end
$var wire 1 C! ECCPIPECE $end
$var wire 1 D! SLEEP $end
$var reg 1 E! RSTA_BUSY $end
$var reg 1 F! RSTB_BUSY $end
$var wire 1 G! CLKA $end
$var wire 1 H! RSTA $end
$var wire 1 I! ENA $end
$var wire 1 J! REGCEA $end
$var wire 1 K! CLKB $end
$var wire 1 L! RSTB $end
$var wire 1 M! ENB $end
$var wire 1 N! REGCEB $end
$var wire 1 O! INJECTSBITERR $end
$var wire 1 P! INJECTDBITERR $end
$var wire 1 Q! S_ACLK $end
$var wire 1 R! S_ARESETN $end
$var wire 1 S! S_AXI_AWVALID $end
$var wire 1 T! S_AXI_WLAST $end
$var wire 1 U! S_AXI_WVALID $end
$var wire 1 V! S_AXI_BREADY $end
$var wire 1 W! S_AXI_ARVALID $end
$var wire 1 X! S_AXI_RREADY $end
$var wire 1 Y! S_AXI_INJECTSBITERR $end
$var wire 1 Z! S_AXI_INJECTDBITERR $end
$var reg 1 [! injectsbiterr_in $end
$var reg 1 \! injectdbiterr_in $end
$var reg 1 ]! rsta_in $end
$var reg 1 ^! ena_in $end
$var reg 1 _! regcea_in $end
$var reg 1 `! wea_in [0:0] $end
$var reg 6 a! addra_in [5:0] $end
$var reg 32 b! dina_in [31:0] $end
$var wire 6 c! s_axi_awaddr_out_c [5:0] $end
$var wire 6 d! s_axi_araddr_out_c [5:0] $end
$var wire 1 e! s_axi_wr_en_c $end
$var wire 1 f! s_axi_rd_en_c $end
$var wire 1 g! s_aresetn_a_c $end
$var wire 8 h! s_axi_arlen_c [7:0] $end
$var wire 4 i! s_axi_rid_c [3:0] $end
$var wire 32 j! s_axi_rdata_c [31:0] $end
$var wire 2 k! s_axi_rresp_c [1:0] $end
$var wire 1 l! s_axi_rlast_c $end
$var wire 1 m! s_axi_rvalid_c $end
$var wire 1 n! s_axi_rready_c $end
$var wire 1 o! regceb_c $end
$var wire 7 p! s_axi_payload_c [6:0] $end
$var wire 7 q! m_axi_payload_c [6:0] $end
$var reg 5 r! RSTA_SHFT_REG [4:0] $end
$var reg 1 s! POR_A $end
$var reg 5 t! RSTB_SHFT_REG [4:0] $end
$var reg 1 u! POR_B $end
$var reg 1 v! ENA_dly $end
$var reg 1 w! ENA_dly_D $end
$var reg 1 x! ENB_dly $end
$var reg 1 y! ENB_dly_D $end
$var wire 1 z! RSTA_I_SAFE $end
$var wire 1 {! RSTB_I_SAFE $end
$var wire 1 |! ENA_I_SAFE $end
$var wire 1 }! ENB_I_SAFE $end
$var reg 1 ~! ram_rstram_a_busy $end
$var reg 1 !" ram_rstreg_a_busy $end
$var reg 1 "" ram_rstram_b_busy $end
$var reg 1 #" ram_rstreg_b_busy $end
$var reg 1 $" ENA_dly_reg $end
$var reg 1 %" ENB_dly_reg $end
$var reg 1 &" ENA_dly_reg_D $end
$var reg 1 '" ENB_dly_reg_D $end
$scope module native_mem_module.blk_mem_gen_v8_4_4_inst $end
$var wire 1 G! CLKA $end
$var wire 1 z! RSTA $end
$var wire 1 |! ENA $end
$var wire 1 (" REGCEA $end
$var wire 1 )" WEA [0:0] $end
$var wire 6 *" ADDRA [5:0] $end
$var wire 32 +" DINA [31:0] $end
$var wire 32 *! DOUTA [31:0] $end
$var wire 1 K! CLKB $end
$var wire 1 {! RSTB $end
$var wire 1 }! ENB $end
$var wire 1 N! REGCEB $end
$var wire 1 +! WEB [0:0] $end
$var wire 6 ,! ADDRB [5:0] $end
$var wire 32 -! DINB [31:0] $end
$var wire 32 .! DOUTB [31:0] $end
$var wire 1 ," INJECTSBITERR $end
$var wire 1 -" INJECTDBITERR $end
$var wire 1 C! ECCPIPECE $end
$var wire 1 D! SLEEP $end
$var wire 1 { SBITERR $end
$var wire 1 | DBITERR $end
$var wire 6 /! RDADDRECC [5:0] $end
$var reg 39 ." doublebit_error [38:0] $end
$var reg 32 /" memory_out_a [31:0] $end
$var reg 32 0" memory_out_b [31:0] $end
$var reg 1 1" sbiterr_in $end
$var wire 1 2" sbiterr_sdp $end
$var reg 1 3" dbiterr_in $end
$var wire 1 4" dbiterr_sdp $end
$var wire 32 5" dout_i [31:0] $end
$var wire 1 6" dbiterr_i $end
$var wire 1 7" sbiterr_i $end
$var wire 6 8" rdaddrecc_i [5:0] $end
$var reg 6 9" rdaddrecc_in [5:0] $end
$var wire 6 :" rdaddrecc_sdp [5:0] $end
$var reg 32 ;" inita_val [31:0] $end
$var reg 32 <" initb_val [31:0] $end
$var reg 1 =" is_collision $end
$var reg 1 >" is_collision_a $end
$var reg 1 ?" is_collision_delay_a $end
$var reg 1 @" is_collision_b $end
$var reg 1 A" is_collision_delay_b $end
$var integer 32 B" status $end
$var integer 32 C" initfile $end
$var integer 32 D" meminitfile $end
$var reg 32 E" mif_data [31:0] $end
$var reg 32 F" mem_data [31:0] $end
$var reg 256 G" inita_str [255:0] $end
$var reg 256 H" initb_str [255:0] $end
$var reg 256 I" default_data_str [255:0] $end
$var reg 8184 J" init_file_str [8183:0] $end
$var reg 8184 K" mem_init_file_str [8183:0] $end
$var integer 32 L" cnt $end
$var integer 32 M" write_addr_a_width $end
$var integer 32 N" read_addr_a_width $end
$var integer 32 O" write_addr_b_width $end
$var integer 32 P" read_addr_b_width $end
$var wire 1 Q" ena_i $end
$var wire 1 R" enb_i $end
$var wire 1 S" reseta_i $end
$var wire 1 T" resetb_i $end
$var wire 1 U" wea_i [0:0] $end
$var wire 1 V" web_i [0:0] $end
$var wire 1 W" rea_i $end
$var wire 1 X" reb_i $end
$var wire 1 Y" rsta_outp_stage $end
$var wire 1 Z" rstb_outp_stage $end
$var wire 6 [" \async_coll.addra_delay  [5:0] $end
$var wire 1 \" \async_coll.wea_delay  [0:0] $end
$var wire 1 ]" \async_coll.ena_delay  $end
$var wire 6 ^" \async_coll.addrb_delay  [5:0] $end
$var wire 1 _" \async_coll.web_delay  [0:0] $end
$var wire 1 `" \async_coll.enb_delay  $end
$scope module reg_a $end
$var wire 1 G! CLK $end
$var wire 1 Y" RST $end
$var wire 1 |! EN $end
$var wire 1 (" REGCE $end
$var wire 32 a" DIN_I [31:0] $end
$var reg 32 b" DOUT [31:0] $end
$var wire 1 c" SBITERR_IN_I $end
$var wire 1 d" DBITERR_IN_I $end
$var reg 1 e" SBITERR $end
$var reg 1 f" DBITERR $end
$var wire 6 g" RDADDRECC_IN_I [5:0] $end
$var wire 1 h" ECCPIPECE $end
$var reg 6 i" RDADDRECC [5:0] $end
$var reg 32 j" out_regs [31:0] $end
$var reg 6 k" rdaddrecc_regs [5:0] $end
$var reg 1 l" sbiterr_regs [0:0] $end
$var reg 1 m" dbiterr_regs [0:0] $end
$var reg 256 n" init_str [255:0] $end
$var reg 32 o" init_val [31:0] $end
$var wire 1 p" en_i $end
$var wire 1 q" regce_i $end
$var wire 1 r" rst_i $end
$var reg 32 s" DIN [31:0] $end
$var reg 6 t" RDADDRECC_IN [5:0] $end
$var reg 1 u" SBITERR_IN $end
$var reg 1 v" DBITERR_IN $end
$upscope $end
$scope module reg_b $end
$var wire 1 K! CLK $end
$var wire 1 Z" RST $end
$var wire 1 }! EN $end
$var wire 1 N! REGCE $end
$var wire 32 w" DIN_I [31:0] $end
$var reg 32 x" DOUT [31:0] $end
$var wire 1 y" SBITERR_IN_I $end
$var wire 1 z" DBITERR_IN_I $end
$var reg 1 {" SBITERR $end
$var reg 1 |" DBITERR $end
$var wire 6 }" RDADDRECC_IN_I [5:0] $end
$var wire 1 C! ECCPIPECE $end
$var reg 6 ~" RDADDRECC [5:0] $end
$var reg 32 !# out_regs [31:0] $end
$var reg 6 "# rdaddrecc_regs [5:0] $end
$var reg 1 ## sbiterr_regs [0:0] $end
$var reg 1 $# dbiterr_regs [0:0] $end
$var reg 256 %# init_str [255:0] $end
$var reg 32 &# init_val [31:0] $end
$var wire 1 '# en_i $end
$var wire 1 (# regce_i $end
$var wire 1 )# rst_i $end
$var reg 32 *# DIN [31:0] $end
$var reg 6 +# RDADDRECC_IN [5:0] $end
$var reg 1 ,# SBITERR_IN $end
$var reg 1 -# DBITERR_IN $end
$upscope $end
$scope module has_softecc_output_reg_stage $end
$var wire 1 K! CLK $end
$var wire 32 5" DIN [31:0] $end
$var reg 32 .# DOUT [31:0] $end
$var wire 1 7" SBITERR_IN $end
$var wire 1 6" DBITERR_IN $end
$var reg 1 /# SBITERR $end
$var reg 1 0# DBITERR $end
$var wire 6 8" RDADDRECC_IN [5:0] $end
$var reg 6 1# RDADDRECC [5:0] $end
$var reg 32 2# dout_i [31:0] $end
$var reg 1 3# sbiterr_i $end
$var reg 1 4# dbiterr_i $end
$var reg 6 5# rdaddrecc_i [5:0] $end
$upscope $end
$scope task write_a $end
$var reg 6 6# addr [5:0] $end
$var reg 1 7# byte_en [0:0] $end
$var reg 32 8# data [31:0] $end
$var reg 1 9# inj_sbiterr $end
$var reg 1 :# inj_dbiterr $end
$var reg 32 ;# current_contents [31:0] $end
$var reg 6 <# address [5:0] $end
$var integer 32 =# i $end
$upscope $end
$scope task write_b $end
$var reg 6 ># addr [5:0] $end
$var reg 1 ?# byte_en [0:0] $end
$var reg 32 @# data [31:0] $end
$var reg 32 A# current_contents [31:0] $end
$var reg 6 B# address [5:0] $end
$var integer 32 C# i $end
$upscope $end
$scope task read_a $end
$var reg 6 D# addr [5:0] $end
$var reg 1 E# reset $end
$var reg 6 F# address [5:0] $end
$var integer 32 G# i $end
$upscope $end
$scope task read_b $end
$var reg 6 H# addr [5:0] $end
$var reg 1 I# reset $end
$var reg 6 J# address [5:0] $end
$var integer 32 K# i $end
$upscope $end
$scope task init_memory $end
$var integer 32 L# i $end
$var integer 32 M# j $end
$var integer 32 N# addr_step $end
$var integer 32 O# status $end
$var reg 32 P# default_data [31:0] $end
$upscope $end
$scope function log2roundup $end
$var integer 32 Q# log2roundup $end
$var integer 32 R# data_value $end
$var integer 32 S# width $end
$var integer 32 T# cnt $end
$upscope $end
$scope function collision_check $end
$var integer 32 U# collision_check $end
$var reg 6 V# addr_a [5:0] $end
$var integer 32 W# iswrite_a $end
$var reg 6 X# addr_b [5:0] $end
$var integer 32 Y# iswrite_b $end
$var reg 1 Z# c_aw_bw $end
$var reg 1 [# c_aw_br $end
$var reg 1 \# c_ar_bw $end
$var integer 32 ]# scaled_addra_to_waddrb_width $end
$var integer 32 ^# scaled_addrb_to_waddrb_width $end
$var integer 32 _# scaled_addra_to_waddra_width $end
$var integer 32 `# scaled_addrb_to_waddra_width $end
$var integer 32 a# scaled_addra_to_raddrb_width $end
$var integer 32 b# scaled_addrb_to_raddrb_width $end
$var integer 32 c# scaled_addra_to_raddra_width $end
$var integer 32 d# scaled_addrb_to_raddra_width $end
$upscope $end
$upscope $end
$upscope $end
$upscope $end
$scope module DUT $end
$var wire 1 $ BCK $end
$var wire 1 e# nReset $end
$var wire 1 & Latch $end
$var wire 64 f# Data_In [63:0] $end
$var reg 64 g# Data_Out [63:0] $end
$var wire 1 h# Reset $end
$upscope $end
$upscope $end
$enddefinitions $end
#0
$dumpvars
0!
z!!
0!"
b0 !#
1"
z"!
0""
b0 "#
0#
z#!
0#"
0##
x$
z$!
0$"
0$#
x%
z%!
0%"
b110000 %#
x&
z&!
0&"
b0 &#
x'
0'!
0'"
1'#
b0 (
b0 (!
0("
1(#
b1 )
b0 )!
0)"
0)#
b0 *
b0 *!
b0 *"
b0 *#
b1 +
0+!
b0 +"
b0 +#
bx ,
b0 ,!
0,"
0,#
b0 -
b0 -!
0-"
0-#
bz .
b0 .!
b11 ."
b0 .#
z/
b0 /!
b0 /"
0/#
00
b0 0!
b0 0"
00#
11
b0 1!
01"
b0 1#
x2
b0 2!
02"
b0 2#
x3
b0 3!
03"
03#
x4
b0 4!
04"
04#
x5
b0 5!
b0 5"
b0 5#
b0 6
06!
06"
b101111 6#
17
bz 7!
07"
17#
b0 8
bz 8!
b0 8"
b11101111010010101110110000000000 8#
b0 9
b0 9!
b0 9"
09#
1:
b0 :!
b0 :"
0:#
b1 ;
b0 ;!
b0 ;"
b11101111010010101110110000000000 ;#
b1 <
b0 <!
b0 <"
b101111 <#
0=
b0 =!
x="
bx =#
b0 >
bz >!
x>"
bx >#
0?
bz ?!
x?"
x?#
0@
bz @!
x@"
bx @#
0A
bz A!
xA"
bx A#
0B
0B!
bx B"
bx B#
b0 C
0C!
b11111111111111111011000111100000 C"
bx C#
0D
0D!
bx D"
bx D#
0E
0E!
b11101111010010101110110000000000 E"
xE#
0F
0F!
bx F"
bx F#
0G
0G!
b110000 G"
bx G#
0H
0H!
b110000 H"
bx H#
b0 I
0I!
b110000 I"
xI#
b0 J
0J!
b110001001101100011010110101111101101101011001010110110101011111011001110110010101101110010111110011000000101110011011010110100101100110 J"
bx J#
b0 K
0K!
b110001001101100011010110101111101101101011001010110110101011111011001110110010101101110010111110011000000101110011011010110010101101101 K"
bx K#
0L
0L!
b1 L"
b110000 L#
0M
0M!
b110 M"
bx M#
0N
0N!
b110 N"
b1 N#
0O
0O!
b110 O"
b1 O#
b0 P
0P!
b110 P"
b0 P#
0Q
0Q!
1Q"
b0 Q#
0R
0R!
0R"
b1 R#
0S
0S!
0S"
b0 S#
0T
0T!
0T"
bx T#
0U
0U!
0U"
bx U#
0V
0V!
0V"
bx V#
0W
0W!
1W"
bx W#
0X
0X!
0X"
bx X#
b0 Y
0Y!
0Y"
bx Y#
b0 Z
0Z!
0Z"
xZ#
b0 [
0[!
bx ["
x[#
b0 \
0\!
x\"
x\#
b0 ]
0]!
x]"
bx ]#
0^
0^!
bx ^"
bx ^#
z_
0_!
x_"
bx _#
b0 `
0`!
x`"
bx `#
0a
b0 a!
b0 a"
bx a#
0b
b0 b!
b0 b"
bx b#
0c
bz c!
0c"
bx c#
zd
bz d!
0d"
bx d#
bz e
ze!
0e"
1e#
bz f
zf!
0f"
b0 f#
zg
zg!
b0 g"
bx g#
0h
bz h!
0h"
1h#
b0 i
bz i!
b0 i"
b0 j
bz j!
b0 j"
b0 k
bz k!
b0 k"
b0 l
zl!
0l"
b0 m
zm!
0m"
0n
0n!
b110000 n"
zo
0o!
b0 o"
bz p
bz p!
1p"
bz q
bz q!
1q"
bz r
b0 r!
0r"
zs
0s!
b0 s"
zt
b0 t!
b0 t"
0u
0u!
0u"
0v
0v!
0v"
0w
0w!
b0 w"
zx
0x!
b0 x"
zy
0y!
0y"
bz z
0z!
0z"
0{
0{!
0{"
0|
0|!
0|"
z}
0}!
b0 }"
z~
0~!
b0 ~"
$end
#100
b0 ["
0\"
1]"
b0 ^"
0_"
0`"
#1000
1!
1#
0$
1%
1&
0'
b0 ,
10
12
03
14
05
b0 6
1=
0>"
0?"
b0 D#
0E#
b0 F#
1G!
b0 g#
1h#
#1100
b0 /"
#2000
0!
0#
00
0=
0G!
#3000
1!
1#
10
12
03
14
05
b0 6
1=
b0 D#
0E#
b0 F#
1G!
#3100
b0 /"
#4000
0!
0"
0#
00
01
07
0:
0=
0G!
0e#
1h#
#5000
1!
1"
1#
10
11
12
03
14
05
b0 6
17
b0 9
1:
b1 <
1=
b0 D#
0E#
b0 F#
1G!
1e#
1h#
#5100
b0 /"
#6000
0!
0#
00
0=
0G!
#7000
1!
1#
10
12
03
14
05
b0 6
1=
b0 D#
0E#
b0 F#
1G!
#7100
b0 /"
#8000
0!
0#
00
0=
0G!
#9000
1!
0"
1#
10
01
12
03
14
05
b1 6
07
0:
1=
b0 D#
0E#
b0 F#
1G!
0e#
1h#
#9100
b0 /"
#10000
0!
0#
00
0=
0G!
#11000
1!
1#
0&
10
12
03
04
05
b10 6
1=
b0 D#
0E#
b0 F#
1G!
0h#
#11100
b0 /"
#12000
0!
0#
00
0=
0G!
#13000
1!
1#
1$
10
12
13
04
05
b11 6
1=
b0 D#
0E#
b0 F#
1G!
#13100
b0 /"
#14000
0!
0#
00
0=
0G!
#15000
1!
1#
10
12
13
04
05
b100 6
1=
b0 D#
0E#
b0 F#
1G!
#15100
b0 /"
#16000
0!
0#
00
0=
0G!
#17000
1!
1#
0$
10
12
03
04
05
b101 6
1=
b0 D#
0E#
b0 F#
1G!
b0 g#
#17100
b0 /"
#18000
0!
0#
00
0=
0G!
#19000
1!
1#
10
12
03
04
05
b110 6
1=
b0 D#
0E#
b0 F#
1G!
#19100
b0 /"
#20000
0!
0#
00
0=
0G!
#21000
1!
1#
1$
10
12
13
04
05
b111 6
1=
b0 D#
0E#
b0 F#
1G!
#21100
b0 /"
#22000
0!
0#
00
0=
0G!
#23000
1!
1#
10
12
13
04
05
b1000 6
1=
b0 D#
0E#
b0 F#
1G!
#23100
b0 /"
#24000
0!
0#
00
0=
0G!
#25000
1!
1#
0$
10
12
03
04
05
b1001 6
1=
b0 D#
0E#
b0 F#
1G!
b0 g#
#25100
b0 /"
#26000
0!
0#
00
0=
0G!
#27000
1!
1#
10
12
03
04
05
b1010 6
1=
b0 D#
0E#
b0 F#
1G!
#27100
b0 /"
#28000
0!
0#
00
0=
0G!
#29000
1!
1#
1$
10
12
13
04
05
b1011 6
1=
b0 D#
0E#
b0 F#
1G!
#29100
b0 /"
#30000
0!
0#
00
0=
0G!
#31000
1!
1#
10
12
13
04
05
b1100 6
1=
b0 D#
0E#
b0 F#
1G!
#31100
b0 /"
#32000
0!
0#
00
0=
0G!
#33000
1!
1#
0$
10
12
03
04
05
b1101 6
1=
b0 D#
0E#
b0 F#
1G!
b0 g#
#33100
b0 /"
#34000
0!
0#
00
0=
0G!
#35000
1!
1#
10
12
03
04
05
b1110 6
1=
b0 D#
0E#
b0 F#
1G!
#35100
b0 /"
#36000
0!
0#
00
0=
0G!
#37000
1!
1#
1$
10
12
13
04
05
b1111 6
1=
b0 D#
0E#
b0 F#
1G!
#37100
b0 /"
#38000
0!
0#
00
0=
0G!
#39000
1!
1#
10
12
13
04
05
b10000 6
1=
b0 D#
0E#
b0 F#
1G!
#39100
b0 /"
#40000
0!
0#
00
0=
0G!
#41000
1!
1#
0$
10
12
03
04
05
b10001 6
1=
b0 D#
0E#
b0 F#
1G!
b0 g#
#41100
b0 /"
#42000
0!
0#
00
0=
0G!
#43000
1!
1#
10
12
03
04
05
b10010 6
1=
b0 D#
0E#
b0 F#
1G!
#43100
b0 /"
#44000
0!
0#
00
0=
0G!
#45000
1!
1#
1$
10
12
13
04
05
b10011 6
1=
b0 D#
0E#
b0 F#
1G!
#45100
b0 /"
#46000
0!
0#
00
0=
0G!
#47000
1!
1#
10
12
13
04
05
b10100 6
1=
b0 D#
0E#
b0 F#
1G!
#47100
b0 /"
#48000
0!
0#
00
0=
0G!
#49000
1!
1#
0$
10
12
03
04
05
b10101 6
1=
b0 D#
0E#
b0 F#
1G!
b0 g#
#49100
b0 /"
#50000
0!
0#
00
0=
0G!
#51000
1!
1#
10
12
03
04
05
b10110 6
1=
b0 D#
0E#
b0 F#
1G!
#51100
b0 /"
#52000
0!
0#
00
0=
0G!
#53000
1!
1#
1$
10
12
13
04
05
b10111 6
1=
b0 D#
0E#
b0 F#
1G!
#53100
b0 /"
#54000
0!
0#
00
0=
0G!
#55000
1!
1#
10
12
13
04
05
b11000 6
1=
b0 D#
0E#
b0 F#
1G!
#55100
b0 /"
#56000
0!
0#
00
0=
0G!
#57000
1!
1#
0$
10
12
03
04
05
b11001 6
1=
b0 D#
0E#
b0 F#
1G!
b0 g#
#57100
b0 /"
#58000
0!
0#
00
0=
0G!
#59000
1!
1#
10
12
03
04
05
b11010 6
1=
b0 D#
0E#
b0 F#
1G!
#59100
b0 /"
#60000
0!
0#
00
0=
0G!
#61000
1!
1#
1$
10
12
13
04
05
b11011 6
1=
b0 D#
0E#
b0 F#
1G!
#61100
b0 /"
#62000
0!
0#
00
0=
0G!
#63000
1!
1#
10
12
13
04
05
b11100 6
1=
b0 D#
0E#
b0 F#
1G!
#63100
b0 /"
#64000
0!
0#
00
0=
0G!
#65000
1!
1#
0$
10
12
03
04
05
b11101 6
1=
b0 D#
0E#
b0 F#
1G!
b0 g#
#65100
b0 /"
#66000
0!
0#
00
0=
0G!
#67000
1!
1#
10
12
03
04
05
b11110 6
1=
b0 D#
0E#
b0 F#
1G!
#67100
b0 /"
#68000
0!
0#
00
0=
0G!
#69000
1!
1#
1$
10
12
13
04
05
b11111 6
1=
b0 D#
0E#
b0 F#
1G!
#69100
b0 /"
#70000
0!
0#
00
0=
0G!
#71000
1!
1#
10
12
13
04
05
b100000 6
1=
b0 D#
0E#
b0 F#
1G!
#71100
b0 /"
#72000
0!
0#
00
0=
0G!
#73000
1!
1#
0$
10
12
03
04
05
b100001 6
1=
b0 D#
0E#
b0 F#
1G!
b0 g#
#73100
b0 /"
#74000
0!
0#
00
0=
0G!
#75000
1!
1#
10
12
03
04
05
b100010 6
1=
b0 D#
0E#
b0 F#
1G!
#75100
b0 /"
#76000
0!
0#
00
0=
0G!
#77000
1!
1#
1$
10
12
13
04
05
b100011 6
1=
b0 D#
0E#
b0 F#
1G!
#77100
b0 /"
#78000
0!
0#
00
0=
0G!
#79000
1!
1#
10
12
13
04
05
b100100 6
1=
b0 D#
0E#
b0 F#
1G!
#79100
b0 /"
#80000
0!
0#
00
0=
0G!
#81000
1!
1#
0$
10
12
03
04
05
b100101 6
1=
b0 D#
0E#
b0 F#
1G!
b0 g#
#81100
b0 /"
#82000
0!
0#
00
0=
0G!
#83000
1!
1#
10
12
03
04
05
b100110 6
1=
b0 D#
0E#
b0 F#
1G!
#83100
b0 /"
#84000
0!
0#
00
0=
0G!
#85000
1!
1#
1$
10
12
13
04
05
b100111 6
1=
b0 D#
0E#
b0 F#
1G!
#85100
b0 /"
#86000
0!
0#
00
0=
0G!
#87000
1!
1#
10
12
13
04
05
b101000 6
1=
b0 D#
0E#
b0 F#
1G!
#87100
b0 /"
#88000
0!
0#
00
0=
0G!
#89000
1!
1#
0$
10
12
03
04
05
b101001 6
1=
b0 D#
0E#
b0 F#
1G!
b0 g#
#89100
b0 /"
#90000
0!
0#
00
0=
0G!
#91000
1!
1#
10
12
03
04
05
b101010 6
1=
b0 D#
0E#
b0 F#
1G!
#91100
b0 /"
#92000
0!
0#
00
0=
0G!
#93000
1!
1#
1$
10
12
13
04
05
b101011 6
1=
b0 D#
0E#
b0 F#
1G!
#93100
b0 /"
#94000
0!
0#
00
0=
0G!
#95000
1!
1#
10
12
13
04
05
b101100 6
1=
b0 D#
0E#
b0 F#
1G!
#95100
b0 /"
#96000
0!
0#
00
0=
0G!
#97000
1!
1#
0$
10
12
03
04
05
b101101 6
1=
b0 D#
0E#
b0 F#
1G!
b0 g#
#97100
b0 /"
#98000
0!
0#
00
0=
0G!
#99000
1!
1#
10
12
03
04
05
b101110 6
1=
b0 D#
0E#
b0 F#
1G!
#99100
b0 /"
#100000
0!
0#
00
0=
0G!
#101000
1!
1#
1$
10
12
13
04
05
b101111 6
1=
b0 D#
0E#
b0 F#
1G!
#101100
b0 /"
#102000
0!
0#
00
0=
0G!
#103000
1!
1#
10
12
13
04
05
b110000 6
1=
b0 D#
0E#
b0 F#
1G!
#103100
b0 /"
#104000
0!
0#
00
0=
0G!
#105000
1!
1#
0$
10
12
03
04
05
b110001 6
1=
b0 D#
0E#
b0 F#
1G!
b0 g#
#105100
b0 /"
#106000
0!
0#
00
0=
0G!
#107000
1!
1#
10
12
03
04
05
b110010 6
1=
b0 D#
0E#
b0 F#
1G!
#107100
b0 /"
#108000
0!
0#
00
0=
0G!
#109000
1!
1#
1$
10
12
13
04
05
b110011 6
1=
b0 D#
0E#
b0 F#
1G!
#109100
b0 /"
#110000
0!
0#
00
0=
0G!
#111000
1!
1#
10
12
13
04
05
b110100 6
1=
b0 D#
0E#
b0 F#
1G!
#111100
b0 /"
#112000
0!
0#
00
0=
0G!
#113000
1!
1#
0$
10
12
03
04
05
b110101 6
1=
b0 D#
0E#
b0 F#
1G!
b0 g#
