Firmware/Serial_Clocking/Serial_Clocking.sim/sim_1/behav/xsim/dump.vcd
$date
   Sat Oct 16 15:10:16 2021
$end
$version
  2020.2
$end
$timescale
  1ps
$end
$scope module Clock_Div_TB $end
$var reg 1 ! TB_CLK $end
$var reg 1 " Enable $end
$var wire 1 # LRCK $end
$var wire 1 $ BCK $end
$scope module DUT $end
$var wire 1 % CLK_in $end
$var wire 1 & en $end
$var wire 1 # LRCK_out $end
$var wire 1 $ BCK_out $end
$var wire 1 ' BCK_int $end
$var wire 1 ( LRCK_int $end
$scope module DIV_BCK $end
$var wire 1 % CLK_in $end
$var wire 1 & en $end
$var wire 1 ' CLK_out $end
$var wire 1 ) feed_back $end
$upscope $end
$scope module DIV_LRCK $end
$var wire 1 % CLK_in $end
$var wire 1 & en $end
$var wire 1 ( CLK_out $end
$var wire 7 * feed_forward [6:0] $end
$var wire 1 + feed_back $end
$upscope $end
$upscope $end
$upscope $end
$enddefinitions $end
#0
$dumpvars
0!
0"
1#
0$
0%
0&
0'
1(
1)
b1111111 *
0+
$end
#1000
1!
1%
#2000
0!
0%
#3000
1!
1%
#4000
0!
1"
0%
1&
#5000
1!
1%
#5100
0'
b1111111 *
#6000
0!
0%
#7000
1!
1%
#7100
1$
1'
0)
b1111111 *
#8000
0!
0%
#9000
1!
1%
#9100
1'
b1111111 *
#10000
0!
0%
#11000
1!
1%
#11100
0$
0'
1)
b1111111 *
#12000
0!
0%
#13000
1!
1%
#13100
0'
b1111111 *
#14000
0!
0%
#15000
1!
1%
#15100
1$
1'
0)
b1111111 *
#16000
0!
0%
#17000
1!
1%
#17100
1'
b1111111 *
#18000
0!
0%
#19000
1!
1%
#19100
0$
0'
1)
b1111111 *
#20000
0!
0%
#21000
1!
1%
#21100
0'
b1111111 *
#22000
0!
0%
#23000
1!
1%
#23100
1$
1'
0)
b1111111 *
#24000
0!
0%
#25000
1!
1%
#25100
1'
b1111111 *
#26000
0!
0%
#27000
1!
1%
#27100
0$
0'
1)
b1111111 *
#28000
0!
0%
#29000
1!
1%
#29100
0'
b1111111 *
#30000
0!
0%
#31000
1!
1%
#31100
1$
1'
0)
b1111111 *
#32000
0!
0%
#33000
1!
1%
#33100
1'
b1111111 *
#34000
0!
0%
#35000
1!
1%
#35100
0$
0'
1)
b1111110 *
#36000
0!
0%
#37000
1!
1%
#37100
0'
b1111110 *
#38000
0!
0%
#39000
1!
1%
#39100
1$
1'
0)
b1111110 *
#40000
0!
0%
#41000
1!
1%
#41100
1'
b1111110 *
#42000
0!
0%
#43000
1!
1%
#43100
0$
0'
1)
b1111110 *
#44000
0!
0%
#45000
1!
1%
#45100
0'
b1111110 *
#46000
0!
0%
#47000
1!
1%
#47100
1$
1'
0)
b1111110 *
#48000
0!
0%
#49000
1!
1%
#49100
1'
b1111110 *
#50000
0!
0%
#51000
1!
1%
#51100
0$
0'
1)
b1111110 *
#52000
0!
0%
#53000
1!
1%
#53100
0'
b1111110 *
#54000
0!
0%
#55000
1!
1%
#55100
1$
1'
0)
b1111110 *
#56000
0!
0%
#57000
1!
1%
#57100
1'
b1111110 *
#58000
0!
0%
#59000
1!
1%
#59100
0$
0'
1)
b1111110 *
#60000
0!
0%
#61000
1!
1%
#61100
0'
b1111110 *
#62000
0!
0%
#63000
1!
1%
#63100
1$
1'
0)
b1111110 *
#64000
0!
0%
#65000
1!
1%
#65100
1'
b1111110 *
#66000
0!
0%
#67000
1!
1%
#67100
0$
0'
1)
b1111100 *
#68000
0!
0%
#69000
1!
1%
#69100
0'
b1111100 *
#70000
0!
0%
#71000
1!
1%
#71100
1$
1'
0)
b1111100 *
#72000
0!
0%
#73000
1!
1%
#73100
1'
b1111100 *
#74000
0!
0%
#75000
1!
1%
#75100
0$
0'
1)
b1111100 *
#76000
0!
0%
#77000
1!
1%
#77100
0'
b1111100 *
#78000
0!
0%
#79000
1!
1%
#79100
1$
1'
0)
b1111100 *
#80000
0!
0%
#81000
1!
1%
#81100
1'
b1111100 *
#82000
0!
0%
#83000
1!
1%
#83100
0$
0'
1)
b1111100 *
#84000
0!
0%
#85000
1!
1%
#85100
0'
b1111100 *
#86000
0!
0%
#87000
1!
1%
#87100
1$
1'
0)
b1111100 *
#88000
0!
0%
#89000
1!
1%
#89100
1'
b1111100 *
#90000
0!
0%
#91000
1!
1%
#91100
0$
0'
1)
b1111100 *
#92000
0!
0%
#93000
1!
1%
#93100
0'
b1111100 *
#94000
0!
0%
#95000
1!
1%
#95100
1$
1'
0)
b1111100 *
#96000
0!
0%
#97000
1!
1%
#97100
1'
b1111100 *
#98000
0!
0%
#99000
1!
1%
#99100
0$
0'
1)
b1111000 *
#100000
0!
0%
#101000
1!
1%
#101100
0'
b1111000 *
#102000
0!
0%
#103000
1!
1%
#103100
1$
1'
0)
b1111000 *
#104000
0!
0%
#105000
1!
1%
#105100
1'
b1111000 *
#106000
0!
0%
#107000
1!
1%
#107100
0$
0'
1)
b1111000 *
#108000
0!
0%
#109000
1!
1%
#109100
0'
b1111000 *
#110000
0!
0%
#111000
1!
1%
#111100
1$
1'
0)
b1111000 *
#112000
0!
0%
#113000
1!
1%
#113100
1'
b1111000 *
#114000
0!
0%
#115000
1!
1%
#115100
0$
0'
1)
b1111000 *
#116000
0!
0%
#117000
1!
1%
#117100
0'
b1111000 *
#118000
0!
0%
#119000
1!
1%
#119100
1$
1'
0)
b1111000 *
#120000
0!
0%
#121000
1!
1%
#121100
1'
b1111000 *
#122000
0!
0%
#123000
1!
1%
#123100
0$
0'
1)
b1111000 *
#124000
0!
0%
#125000
1!
1%
#125100
0'
b1111000 *
#126000
0!
0%
#127000
1!
1%
#127100
1$
1'
0)
b1111000 *
#128000
0!
0%
#129000
1!
1%
#129100
1'
b1111000 *
#130000
0!
0%
#131000
1!
1%
#131100
0$
0'
1)
b1110000 *
#132000
0!
0%
#133000
1!
1%
#133100
0'
b1110000 *
#134000
0!
0%
#135000
1!
1%
#135100
1$
1'
0)
b1110000 *
#136000
0!
0%
#137000
1!
1%
#137100
1'
b1110000 *
#138000
0!
0%
#139000
1!
1%
#139100
0$
0'
1)
b1110000 *
#140000
0!
0%
#141000
1!
1%
#141100
0'
b1110000 *
#142000
0!
0%
#143000
1!
1%
#143100
1$
1'
0)
b1110000 *
#144000
0!
0%
#145000
1!
1%
#145100
1'
b1110000 *
#146000
0!
0%
#147000
1!
1%
#147100
0$
0'
1)
b1110000 *
#148000
0!
0%
#149000
1!
1%
#149100
0'
b1110000 *
#150000
0!
0%
#151000
1!
1%
#151100
1$
1'
0)
b1110000 *
#152000
0!
0%
#153000
1!
1%
#153100
1'
b1110000 *
#154000
0!
0%
#155000
1!
1%
#155100
0$
0'
1)
b1110000 *
#156000
0!
0%
#157000
1!
1%
#157100
0'
b1110000 *
#158000
0!
0%
#159000
1!
1%
#159100
1$
1'
0)
b1110000 *
#160000
0!
0%
#161000
1!
1%
#161100
1'
b1110000 *
#162000
0!
0%
#163000
1!
1%
#163100
0$
0'
1)
b1100000 *
#164000
0!
0%
#165000
1!
1%
#165100
0'
b1100000 *
#166000
0!
0%
#167000
1!
1%
#167100
1$
1'
0)
b1100000 *
#168000
0!
0%
#169000
1!
1%
#169100
1'
b1100000 *
#170000
0!
0%
#171000
1!
1%
#171100
0$
0'
1)
b1100000 *
#172000
0!
0%
#173000
1!
1%
#173100
0'
b1100000 *
#174000
0!
0%
#175000
1!
1%
#175100
1$
1'
0)
b1100000 *
#176000
0!
0%
#177000
1!
1%
#177100
1'
b1100000 *
#178000
0!
0%
#179000
1!
1%
#179100
0$
0'
1)
b1100000 *
#180000
0!
0%
#181000
1!
1%
#181100
0'
b1100000 *
#182000
0!
0%
#183000
1!
1%
#183100
1$
1'
0)
b1100000 *
#184000
0!
0%
#185000
1!
1%
#185100
1'
b1100000 *
#186000
0!
0%
#187000
1!
1%
#187100
0$
0'
1)
b1100000 *
#188000
0!
0%
#189000
1!
1%
#189100
0'
b1100000 *
#190000
0!
0%
#191000
1!
1%
#191100
1$
1'
0)
b1100000 *
#192000
0!
0%
#193000
1!
1%
#193100
1'
b1100000 *
#194000
0!
0%
#195000
1!
1%
#195100
0$
0'
1)
b1000000 *
#196000
0!
0%
#197000
1!
1%
#197100
0'
b1000000 *
#198000
0!
0%
#199000
1!
1%
#199100
1$
1'
0)
b1000000 *
#200000
0!
0%
#201000
1!
1%
#201100
1'
b1000000 *
#202000
0!
0%
#203000
1!
1%
#203100
0$
0'
1)
b1000000 *
#204000
0!
0%
#205000
1!
1%
#205100
0'
b1000000 *
#206000
0!
0%
#207000
1!
1%
#207100
1$
1'
0)
b1000000 *
#208000
0!
0%
#209000
1!
1%
#209100
1'
b1000000 *
#210000
0!
0%
#211000
1!
1%
#211100
0$
0'
1)
b1000000 *
#212000
0!
0%
#213000
1!
1%
#213100
0'
b1000000 *
#214000
0!
0%
#215000
1!
1%
#215100
1$
1'
0)
b1000000 *
#216000
0!
0%
#217000
1!
1%
#217100
1'
b1000000 *
#218000
0!
0%
#219000
1!
1%
#219100
0$
0'
1)
b1000000 *
#220000
0!
0%
#221000
1!
1%
#221100
0'
b1000000 *
#222000
0!
0%
#223000
1!
1%
#223100
1$
1'
0)
b1000000 *
#224000
0!
0%
#225000
1!
1%
#225100
1'
b1000000 *
#226000
0!
0%
#227000
1!
1%
#227100
0$
0'
1)
b0 *
#228000
0!
0%
#229000
1!
1%
#229100
0'
1(
#230000
0!
0%
#231000
1!
1%
#231100
1$
1'
1(
0)
#232000
0!
0%
#233000
1!
1%
#233100
1'
1(
#234000
0!
0%
#235000
1!
1%
#235100
0$
0'
1(
1)
#236000
0!
0%
#237000
1!
1%
#237100
0'
1(
#238000
0!
0%
#239000
1!
1%
#239100
1$
1'
1(
0)
#240000
0!
0%
#241000
1!
1%
#241100
1'
1(
#242000
0!
0%
#243000
1!
1%
#243100
0$
0'
1(
1)
#244000
0!
0%
#245000
1!
1%
#245100
0'
1(
#246000
0!
0%
#247000
1!
1%
#247100
1$
1'
1(
0)
#248000
0!
0%
#249000
1!
1%
#249100
1'
1(
#250000
0!
0%
#251000
1!
1%
#251100
0$
0'
1(
1)
#252000
0!
0%
#253000
1!
1%
#253100
0'
1(
#254000
0!
0%
#255000
1!
1%
#255100
1$
1'
1(
0)
#256000
0!
0%
#257000
1!
1%
#257100
1'
1(
#258000
0!
0%
#259000
1!
1%
#259100
0#
0$
0'
0(
1)
1+
#260000
0!
0%
#261000
1!
1%
#261100
0'
b0 *
