Firmware/AUX_In/AUX_In.sim/sim_1/behav/xsim/dump.vcd
$date
   Tue Oct 26 17:17:45 2021
$end
$version
  2020.2
$end
$timescale
  1ps
$end
$scope module Clock_Div_TB $end
$var reg 1 ! TB_CLK $end
$var reg 1 " Enable $end
$var reg 1 # Reset $end
$var wire 1 $ LRCK $end
$var wire 1 % BCK $end
$var wire 1 & I2S_Pulse $end
$var wire 1 ' SCL $end
$var wire 1 ( SDA $end
$scope module DUT2 $end
$var wire 1 ) CLK_in $end
$var wire 1 * en $end
$var wire 1 & CLK_out $end
$var wire 15 + feed_forward [14:0] $end
$upscope $end
$scope module DUT $end
$var wire 1 , CLK_in $end
$var wire 1 - en $end
$var wire 1 $ LRCK_out $end
$var wire 1 % BCK_out $end
$var wire 1 . BCK_int $end
$var wire 1 / LRCK_int $end
$scope module DIV_BCK $end
$var wire 1 , CLK_in $end
$var wire 1 - en $end
$var wire 1 . CLK_out $end
$var wire 1 0 feed_back $end
$upscope $end
$scope module DIV_LRCK $end
$var wire 1 , CLK_in $end
$var wire 1 - en $end
$var wire 1 / CLK_out $end
$var wire 7 1 feed_forward [6:0] $end
$var wire 1 2 feed_back $end
$upscope $end
$upscope $end
$scope module DUT3 $end
$var wire 1 3 CLK $end
$var wire 1 4 nReset $end
$var wire 1 ( SDA $end
$var wire 1 ' SCL $end
$var reg 8 5 state [7:0] $end
$var reg 25 6 TxData [24:0] $end
$var reg 1 7 SCL_int $end
$var reg 25 8 Power_ON_Code [24:0] $end
$var reg 25 9 UnMute_L_Code [24:0] $end
$var reg 25 : UnMute_R_Code [24:0] $end
$var reg 25 ; Activate_Code [24:0] $end
$var reg 5 < Data_Sel [4:0] $end
$var reg 8 = count [7:0] $end
$upscope $end
$upscope $end
$enddefinitions $end
#0
$dumpvars
0!
0"
1#
1$
0%
0&
1'
1(
0)
0*
b0 +
0,
0-
0.
1/
10
b1111111 1
02
03
14
b0 5
b1111111111111111111111111 6
17
b110100z00001100z01111010z 8
b110100z00000000z00010111z 9
b110100z00000010z00010111z :
b110100z00010010z00000001z ;
b0 <
b0 =
$end
#1000
1!
1)
1,
13
b0 5
b1111111111111111111111111 6
17
b0 <
b0 =
#2000
0!
0)
0,
03
b0 5
b1111111111111111111111111 6
17
b0 <
b0 =
#3000
1!
1)
1,
13
b0 5
b1111111111111111111111111 6
17
b0 <
b0 =
#4000
0!
1"
0)
1*
0,
1-
03
b0 5
b1111111111111111111111111 6
17
b0 <
b0 =
#5000
1!
1)
1,
13
b0 5
b1111111111111111111111111 6
17
b0 <
b0 =
#5100
b0 +
0.
b1111111 1
#6000
0!
0)
0,
03
b0 5
b1111111111111111111111111 6
17
b0 <
b0 =
#7000
1!
1)
1,
13
b0 5
b1111111111111111111111111 6
17
b0 <
b0 =
#7100
1%
b0 +
1.
00
b1111111 1
#8000
0!
0)
0,
03
b0 5
b1111111111111111111111111 6
17
b0 <
b0 =
#9000
1!
1)
1,
13
b0 5
b1111111111111111111111111 6
17
b0 <
b0 =
#9100
b10000000 +
1.
b1111111 1
#10000
0!
0)
0,
03
b0 5
b1111111111111111111111111 6
17
b0 <
b0 =
#11000
1!
1)
1,
13
b0 5
b1111111111111111111111111 6
17
b0 <
b0 =
#11100
0%
b10000000 +
0.
10
b1111111 1
#12000
0!
0)
0,
03
b0 5
b1111111111111111111111111 6
17
b0 <
b0 =
#13000
1!
1)
1,
13
b0 5
b1111111111111111111111111 6
17
b0 <
b0 =
#13100
b0 +
0.
b1111111 1
#14000
0!
0#
0)
0,
03
04
b1 5
b1111111111111111111111111 6
17
b0 <
b0 =
#15000
1!
0(
1)
1,
13
b10 5
b0 6
17
b0 <
b0 =
#15100
1%
b0 +
1.
00
b1111111 1
#16000
0!
0'
0)
0,
03
b11 5
b0 6
07
b0 <
b0 =
#17000
1!
1'
1)
1,
13
b11 5
b0 6
17
b0 <
b1 =
#17100
b0 +
1.
b1111111 1
#18000
0!
0'
0)
0,
03
b11 5
b0 6
07
b0 <
b10 =
#19000
1!
1'
1)
1,
13
b100 5
b0 6
17
b0 <
b11 =
#19100
0%
b0 +
0.
10
b1111111 1
#20000
0!
0'
1(
0)
0,
03
b100 5
b110100z00001100z01111010z 6
07
b0 =
#21000
1!
1'
1)
1,
13
b101 5
b110100z00001100z01111010z 6
17
b0 =
#21100
b0 +
0.
b1111111 1
#22000
0!
0'
0)
0,
03
b101 5
b10100z00001100z01111010z0 6
07
b0 <
b1 =
#23000
1!
1'
1)
1,
13
b101 5
b10100z00001100z01111010z0 6
17
b0 <
b1 =
#23100
1%
b0 +
1.
00
b1111111 1
#24000
0!
0'
0(
0)
0,
03
b101 5
b100z00001100z01111010z00 6
07
b0 <
b10 =
#25000
1!
1'
1)
1,
13
b101 5
b100z00001100z01111010z00 6
17
b0 <
b10 =
#25100
b0 +
1.
b1111111 1
#26000
0!
0'
1(
0)
0,
03
b101 5
b100z00001100z01111010z000 6
07
b0 <
b11 =
#27000
1!
1'
1)
1,
13
b101 5
b100z00001100z01111010z000 6
17
b0 <
b11 =
#27100
0%
b0 +
0.
10
b1111111 1
#28000
0!
0'
0(
0)
0,
03
b101 5
b0z00001100z01111010z0000 6
07
b0 <
b100 =
#29000
1!
1'
1)
1,
13
b101 5
b0z00001100z01111010z0000 6
17
b0 <
b100 =
#29100
b0 +
0.
b1111111 1
#30000
0!
0'
0)
0,
03
b101 5
b0z00001100z01111010z00000 6
07
b0 <
b101 =
#31000
1!
1'
1)
1,
13
b101 5
b0z00001100z01111010z00000 6
17
b0 <
b101 =
#31100
1%
b0 +
1.
00
b1111111 1
#32000
0!
0'
z(
0)
0,
03
b101 5
bz00001100z01111010z000000 6
07
b0 <
b110 =
#33000
1!
1'
1)
1,
13
b101 5
bz00001100z01111010z000000 6
17
b0 <
b110 =
#33100
b0 +
1.
b1111111 1
#34000
0!
0'
0(
0)
0,
03
b101 5
b1100z01111010z0000000 6
07
b0 <
b111 =
#35000
1!
1'
1)
1,
13
b101 5
b1100z01111010z0000000 6
17
b0 <
b111 =
#35100
0%
b0 +
0.
10
b1111110 1
#36000
0!
0'
0)
0,
03
b101 5
b1100z01111010z00000000 6
07
b0 <
b1000 =
#37000
1!
1'
1)
1,
13
b101 5
b1100z01111010z00000000 6
17
b0 <
b1000 =
#37100
b0 +
0.
b1111110 1
#38000
0!
0'
0)
0,
03
b101 5
b1100z01111010z000000000 6
07
b0 <
b1001 =
#39000
1!
1'
1)
1,
13
b101 5
b1100z01111010z000000000 6
17
b0 <
b1001 =
#39100
1%
b0 +
1.
00
b1111110 1
#40000
0!
0'
0)
0,
03
b101 5
b1100z01111010z0000000000 6
07
b0 <
b1010 =
#41000
1!
1'
1)
1,
13
b101 5
b1100z01111010z0000000000 6
17
b0 <
b1010 =
#41100
b100000000 +
1.
b1111110 1
#42000
0!
0'
1(
0)
0,
03
b101 5
b1100z01111010z00000000000 6
07
b0 <
b1011 =
#43000
1!
1'
1)
1,
13
b101 5
b1100z01111010z00000000000 6
17
b0 <
b1011 =
#43100
0%
b100000000 +
0.
10
b1111110 1
#44000
0!
0'
0)
0,
03
b101 5
b100z01111010z000000000000 6
07
b0 <
b1100 =
#45000
1!
1'
1)
1,
13
b101 5
b100z01111010z000000000000 6
17
b0 <
b1100 =
#45100
b0 +
0.
b1111110 1
#46000
0!
0'
0(
0)
0,
03
b101 5
b0z01111010z0000000000000 6
07
b0 <
b1101 =
#47000
1!
1'
1)
1,
13
b101 5
b0z01111010z0000000000000 6
17
b0 <
b1101 =
#47100
1%
b0 +
1.
00
b1111110 1
#48000
0!
0'
0)
0,
03
b101 5
b0z01111010z00000000000000 6
07
b0 <
b1110 =
#49000
1!
1'
1)
1,
13
b101 5
b0z01111010z00000000000000 6
17
b0 <
b1110 =
#49100
b0 +
1.
b1111110 1
#50000
0!
0'
z(
0)
0,
03
b101 5
bz01111010z000000000000000 6
07
b0 <
b1111 =
#51000
1!
1'
1)
1,
13
b101 5
bz01111010z000000000000000 6
17
b0 <
b1111 =
#51100
0%
b0 +
0.
10
b1111110 1
#52000
0!
0'
0(
0)
0,
03
b101 5
b1111010z0000000000000000 6
07
b0 <
b10000 =
#53000
1!
1'
1)
1,
13
b101 5
b1111010z0000000000000000 6
17
b0 <
b10000 =
#53100
b0 +
0.
b1111110 1
#54000
0!
0'
1(
0)
0,
03
b101 5
b1111010z00000000000000000 6
07
b0 <
b10001 =
#55000
1!
1'
1)
1,
13
b101 5
b1111010z00000000000000000 6
17
b0 <
b10001 =
#55100
1%
b0 +
1.
00
b1111110 1
#56000
0!
0'
0)
0,
03
b101 5
b111010z000000000000000000 6
07
b0 <
b10010 =
#57000
1!
1'
1)
1,
13
b101 5
b111010z000000000000000000 6
17
b0 <
b10010 =
#57100
b0 +
1.
b1111110 1
#58000
0!
0'
0)
0,
03
b101 5
b11010z0000000000000000000 6
07
b0 <
b10011 =
#59000
1!
1'
1)
1,
13
b101 5
b11010z0000000000000000000 6
17
b0 <
b10011 =
#59100
0%
b0 +
0.
10
b1111110 1
#60000
0!
0'
0)
0,
03
b101 5
b1010z00000000000000000000 6
07
b0 <
b10100 =
#61000
1!
1'
1)
1,
13
b101 5
b1010z00000000000000000000 6
17
b0 <
b10100 =
#61100
b0 +
0.
b1111110 1
#62000
0!
0'
0(
0)
0,
03
b101 5
b10z000000000000000000000 6
07
b0 <
b10101 =
#63000
1!
1'
1)
1,
13
b101 5
b10z000000000000000000000 6
17
b0 <
b10101 =
#63100
1%
b0 +
1.
00
b1111110 1
#64000
0!
0'
1(
0)
0,
03
b101 5
b10z0000000000000000000000 6
07
b0 <
b10110 =
#65000
1!
1'
1)
1,
13
b101 5
b10z0000000000000000000000 6
17
b0 <
b10110 =
#65100
b0 +
1.
b1111110 1
#66000
0!
0'
0(
0)
0,
03
b101 5
b0z00000000000000000000000 6
07
b0 <
b10111 =
#67000
1!
1'
1)
1,
13
b101 5
b0z00000000000000000000000 6
17
b0 <
b10111 =
#67100
0%
b0 +
0.
10
b1111100 1
#68000
0!
0'
z(
0)
0,
03
b101 5
bz000000000000000000000000 6
07
b0 <
b11000 =
#69000
1!
1'
1)
1,
13
b110 5
bz000000000000000000000000 6
17
b0 <
b11000 =
#69100
b0 +
0.
b1111100 1
#70000
0!
0(
0)
0,
03
b111 5
b0 6
17
b0 <
b0 =
#71000
1!
1(
1)
1,
13
b111 5
b1111111111111111111111111 6
17
b0 <
b1 =
#71100
1%
b0 +
1.
00
b1111100 1
#72000
0!
0)
0,
03
b111 5
b1111111111111111111111111 6
17
b0 <
b10 =
#73000
1!
1)
1,
13
b111 5
b1111111111111111111111111 6
17
b0 <
b11 =
#73100
b1000000000 +
1.
b1111100 1
#74000
0!
0)
0,
03
b1 5
b1111111111111111111111111 6
17
b1 <
b100 =
#75000
1!
0(
1)
1,
13
b10 5
b0 6
17
b1 <
b0 =
#75100
0%
b1000000000 +
0.
10
b1111100 1
#76000
0!
0'
0)
0,
03
b11 5
b0 6
07
b1 <
b0 =
#77000
1!
1'
1)
1,
13
b11 5
b0 6
17
b1 <
b1 =
#77100
b0 +
0.
b1111100 1
#78000
0!
0'
0)
0,
03
b11 5
b0 6
07
b1 <
b10 =
#79000
1!
1'
1)
1,
13
b100 5
b0 6
17
b1 <
b11 =
#79100
1%
b0 +
1.
00
b1111100 1
#80000
0!
0'
1(
0)
0,
03
b100 5
b110100z00000000z00010111z 6
07
b0 =
#81000
1!
1'
1)
1,
13
b101 5
b110100z00000000z00010111z 6
17
b0 =
#81100
b0 +
1.
b1111100 1
#82000
0!
0'
0)
0,
03
b101 5
b10100z00000000z00010111z0 6
07
b1 <
b1 =
#83000
1!
1'
1)
1,
13
b101 5
b10100z00000000z00010111z0 6
17
b1 <
b1 =
#83100
0%
b0 +
0.
10
b1111100 1
#84000
0!
0'
0(
0)
0,
03
b101 5
b100z00000000z00010111z00 6
07
b1 <
b10 =
#85000
1!
1'
1)
1,
13
b101 5
b100z00000000z00010111z00 6
17
b1 <
b10 =
#85100
b0 +
0.
b1111100 1
#86000
0!
0'
1(
0)
0,
03
b101 5
b100z00000000z00010111z000 6
07
b1 <
b11 =
#87000
1!
1'
1)
1,
13
b101 5
b100z00000000z00010111z000 6
17
b1 <
b11 =
#87100
1%
b0 +
1.
00
b1111100 1
#88000
0!
0'
0(
0)
0,
03
b101 5
b0z00000000z00010111z0000 6
07
b1 <
b100 =
#89000
1!
1'
1)
1,
13
b101 5
b0z00000000z00010111z0000 6
17
b1 <
b100 =
#89100
b0 +
1.
b1111100 1
#90000
0!
0'
0)
0,
03
b101 5
b0z00000000z00010111z00000 6
07
b1 <
b101 =
#91000
1!
1'
1)
1,
13
b101 5
b0z00000000z00010111z00000 6
17
b1 <
b101 =
#91100
0%
b0 +
0.
10
b1111100 1
#92000
0!
0'
z(
0)
0,
03
b101 5
bz00000000z00010111z000000 6
07
b1 <
b110 =
#93000
1!
1'
1)
1,
13
b101 5
bz00000000z00010111z000000 6
17
b1 <
b110 =
#93100
b0 +
0.
b1111100 1
#94000
0!
0'
0(
0)
0,
03
b101 5
b0z00010111z0000000 6
07
b1 <
b111 =
#95000
1!
1'
1)
1,
13
b101 5
b0z00010111z0000000 6
17
b1 <
b111 =
#95100
1%
b0 +
1.
00
b1111100 1
#96000
0!
0'
0)
0,
03
b101 5
b0z00010111z00000000 6
07
b1 <
b1000 =
#97000
1!
1'
1)
1,
13
b101 5
b0z00010111z00000000 6
17
b1 <
b1000 =
#97100
b0 +
1.
b1111100 1
#98000
0!
0'
0)
0,
03
b101 5
b0z00010111z000000000 6
07
b1 <
b1001 =
#99000
1!
1'
1)
1,
13
b101 5
b0z00010111z000000000 6
17
b1 <
b1001 =
#99100
0%
b0 +
0.
10
b1111000 1
#100000
0!
0'
0)
0,
03
b101 5
b0z00010111z0000000000 6
07
b1 <
b1010 =
#101000
1!
1'
1)
1,
13
b101 5
b0z00010111z0000000000 6
17
b1 <
b1010 =
#101100
b0 +
0.
b1111000 1
#102000
0!
0'
0)
0,
03
b101 5
b0z00010111z00000000000 6
07
b1 <
b1011 =
#103000
1!
1'
1)
1,
13
b101 5
b0z00010111z00000000000 6
17
b1 <
b1011 =
#103100
1%
b0 +
1.
00
b1111000 1
#104000
0!
0'
0)
0,
03
b101 5
b0z00010111z000000000000 6
07
b1 <
b1100 =
#105000
1!
1'
1)
1,
13
b101 5
b0z00010111z000000000000 6
17
b1 <
b1100 =
#105100
b10000000000 +
1.
b1111000 1
#106000
0!
0'
0)
0,
03
b101 5
b0z00010111z0000000000000 6
07
b1 <
b1101 =
#107000
1!
1'
1)
1,
13
b101 5
b0z00010111z0000000000000 6
17
b1 <
b1101 =
#107100
0%
b10000000000 +
0.
10
b1111000 1
#108000
0!
0'
0)
0,
03
b101 5
b0z00010111z00000000000000 6
07
b1 <
b1110 =
#109000
1!
1'
1)
1,
13
b101 5
b0z00010111z00000000000000 6
17
b1 <
b1110 =
#109100
b0 +
0.
b1111000 1
#110000
0!
0'
z(
0)
0,
03
b101 5
bz00010111z000000000000000 6
07
b1 <
b1111 =
#111000
1!
1'
1)
1,
13
b101 5
bz00010111z000000000000000 6
17
b1 <
b1111 =
#111100
1%
b0 +
1.
00
b1111000 1
#112000
0!
0'
0(
0)
0,
03
b101 5
b10111z0000000000000000 6
07
b1 <
b10000 =
#113000
1!
1'
1)
1,
13
b101 5
b10111z0000000000000000 6
17
b1 <
b10000 =
#113100
b0 +
1.
b1111000 1
#114000
0!
0'
0)
0,
03
b101 5
b10111z00000000000000000 6
07
b1 <
b10001 =
#115000
1!
1'
1)
1,
13
b101 5
b10111z00000000000000000 6
17
b1 <
b10001 =
#115100
0%
b0 +
0.
10
b1111000 1
#116000
0!
0'
0)
0,
03
b101 5
b10111z000000000000000000 6
07
b1 <
b10010 =
#117000
1!
1'
1)
1,
13
b101 5
b10111z000000000000000000 6
17
b1 <
b10010 =
#117100
b0 +
0.
b1111000 1
#118000
0!
0'
1(
0)
0,
03
b101 5
b10111z0000000000000000000 6
07
b1 <
b10011 =
#119000
1!
1'
1)
1,
13
b101 5
b10111z0000000000000000000 6
17
b1 <
b10011 =
#119100
1%
b0 +
1.
00
b1111000 1
#120000
0!
0'
0(
0)
0,
03
b101 5
b111z00000000000000000000 6
07
b1 <
b10100 =
#121000
1!
1'
1)
1,
13
b101 5
b111z00000000000000000000 6
17
b1 <
b10100 =
#121100
b0 +
1.
b1111000 1
#122000
0!
0'
1(
0)
0,
03
b101 5
b111z000000000000000000000 6
07
b1 <
b10101 =
#123000
1!
1'
1)
1,
13
b101 5
b111z000000000000000000000 6
17
b1 <
b10101 =
#123100
0%
b0 +
0.
10
b1111000 1
#124000
0!
0'
0)
0,
03
b101 5
b11z0000000000000000000000 6
07
b1 <
b10110 =
#125000
1!
1'
1)
1,
13
b101 5
b11z0000000000000000000000 6
17
b1 <
b10110 =
#125100
b0 +
0.
b1111000 1
#126000
0!
0'
0)
0,
03
b101 5
b1z00000000000000000000000 6
07
b1 <
b10111 =
#127000
1!
1'
1)
1,
13
b101 5
b1z00000000000000000000000 6
17
b1 <
b10111 =
#127100
1%
b0 +
1.
00
b1111000 1
#128000
0!
0'
z(
0)
0,
03
b101 5
bz000000000000000000000000 6
07
b1 <
b11000 =
#129000
1!
1'
1)
1,
13
b110 5
bz000000000000000000000000 6
17
b1 <
b11000 =
#129100
b0 +
1.
b1111000 1
#130000
0!
0(
0)
0,
03
b111 5
b0 6
17
b1 <
b0 =
#131000
1!
1(
1)
1,
13
b111 5
b1111111111111111111111111 6
17
b1 <
b1 =
#131100
0%
b0 +
0.
10
b1110000 1
#132000
0!
0)
0,
03
b111 5
b1111111111111111111111111 6
17
b1 <
b10 =
#133000
1!
1)
1,
13
b111 5
b1111111111111111111111111 6
17
b1 <
b11 =
#133100
b0 +
0.
b1110000 1
#134000
0!
0)
0,
03
b1 5
b1111111111111111111111111 6
17
b10 <
b100 =
#135000
1!
0(
1)
1,
13
b10 5
b0 6
17
b10 <
b0 =
#135100
1%
b0 +
1.
00
b1110000 1
#136000
0!
0'
0)
0,
03
b11 5
b0 6
07
b10 <
b0 =
#137000
1!
1'
1)
1,
13
b11 5
b0 6
17
b10 <
b1 =
#137100
b100000000000 +
1.
b1110000 1
#138000
0!
0'
0)
0,
03
b11 5
b0 6
07
b10 <
b10 =
#139000
1!
1'
1)
1,
13
b100 5
b0 6
17
b10 <
b11 =
#139100
0%
b100000000000 +
0.
10
b1110000 1
#140000
0!
0'
1(
0)
0,
03
b100 5
b110100z00000010z00010111z 6
07
b0 =
#141000
1!
1'
1)
1,
13
b101 5
b110100z00000010z00010111z 6
17
b0 =
#141100
b0 +
0.
b1110000 1
#142000
0!
0'
0)
0,
03
b101 5
b10100z00000010z00010111z0 6
07
b10 <
b1 =
#143000
1!
1'
1)
1,
13
b101 5
b10100z00000010z00010111z0 6
17
b10 <
b1 =
#143100
1%
b0 +
1.
00
b1110000 1
#144000
0!
0'
0(
0)
0,
03
b101 5
b100z00000010z00010111z00 6
07
b10 <
b10 =
#145000
1!
1'
1)
1,
13
b101 5
b100z00000010z00010111z00 6
17
b10 <
b10 =
#145100
b0 +
1.
b1110000 1
#146000
0!
0'
1(
0)
0,
03
b101 5
b100z00000010z00010111z000 6
07
b10 <
b11 =
#147000
1!
1'
1)
1,
13
b101 5
b100z00000010z00010111z000 6
17
b10 <
b11 =
#147100
0%
b0 +
0.
10
b1110000 1
#148000
0!
0'
0(
0)
0,
03
b101 5
b0z00000010z00010111z0000 6
07
b10 <
b100 =
#149000
1!
1'
1)
1,
13
b101 5
b0z00000010z00010111z0000 6
17
b10 <
b100 =
#149100
b0 +
0.
b1110000 1
#150000
0!
0'
0)
0,
03
b101 5
b0z00000010z00010111z00000 6
07
b10 <
b101 =
#151000
1!
1'
1)
1,
13
b101 5
b0z00000010z00010111z00000 6
17
b10 <
b101 =
#151100
1%
b0 +
1.
00
b1110000 1
#152000
0!
0'
z(
0)
0,
03
b101 5
bz00000010z00010111z000000 6
07
b10 <
b110 =
#153000
1!
1'
1)
1,
13
b101 5
bz00000010z00010111z000000 6
17
b10 <
b110 =
#153100
b0 +
1.
b1110000 1
#154000
0!
0'
0(
0)
0,
03
b101 5
b10z00010111z0000000 6
07
b10 <
b111 =
#155000
1!
1'
1)
1,
13
b101 5
b10z00010111z0000000 6
17
b10 <
b111 =
#155100
0%
b0 +
0.
10
b1110000 1
#156000
0!
0'
0)
0,
03
b101 5
b10z00010111z00000000 6
07
b10 <
b1000 =
#157000
1!
1'
1)
1,
13
b101 5
b10z00010111z00000000 6
17
b10 <
b1000 =
#157100
b0 +
0.
b1110000 1
#158000
0!
0'
0)
0,
03
b101 5
b10z00010111z000000000 6
07
b10 <
b1001 =
#159000
1!
1'
1)
1,
13
b101 5
b10z00010111z000000000 6
17
b10 <
b1001 =
#159100
1%
b0 +
1.
00
b1110000 1
#160000
0!
0'
0)
0,
03
b101 5
b10z00010111z0000000000 6
07
b10 <
b1010 =
#161000
1!
1'
1)
1,
13
b101 5
b10z00010111z0000000000 6
17
b10 <
b1010 =
#161100
b0 +
1.
b1110000 1
#162000
0!
0'
0)
0,
03
b101 5
b10z00010111z00000000000 6
07
b10 <
b1011 =
#163000
1!
1'
1)
1,
13
b101 5
b10z00010111z00000000000 6
17
b10 <
b1011 =
#163100
0%
b0 +
0.
10
b1100000 1
#164000
0!
0'
0)
0,
03
b101 5
b10z00010111z000000000000 6
07
b10 <
b1100 =
#165000
1!
1'
1)
1,
13
b101 5
b10z00010111z000000000000 6
17
b10 <
b1100 =
#165100
b0 +
0.
b1100000 1
#166000
0!
0'
1(
0)
0,
03
b101 5
b10z00010111z0000000000000 6
07
b10 <
b1101 =
#167000
1!
1'
1)
1,
13
b101 5
b10z00010111z0000000000000 6
17
b10 <
b1101 =
#167100
1%
b0 +
1.
00
b1100000 1
#168000
0!
0'
0(
0)
0,
03
b101 5
b0z00010111z00000000000000 6
07
b10 <
b1110 =
#169000
1!
1'
1)
1,
13
b101 5
b0z00010111z00000000000000 6
17
b10 <
b1110 =
#169100
b1000000000000 +
1.
b1100000 1
#170000
0!
0'
z(
0)
0,
03
b101 5
bz00010111z000000000000000 6
07
b10 <
b1111 =
#171000
1!
1'
1)
1,
13
b101 5
bz00010111z000000000000000 6
17
b10 <
b1111 =
#171100
0%
b1000000000000 +
0.
10
b1100000 1
#172000
0!
0'
0(
0)
0,
03
b101 5
b10111z0000000000000000 6
07
b10 <
b10000 =
#173000
1!
1'
1)
1,
13
b101 5
b10111z0000000000000000 6
17
b10 <
b10000 =
#173100
b0 +
0.
b1100000 1
#174000
0!
0'
0)
0,
03
b101 5
b10111z00000000000000000 6
07
b10 <
b10001 =
#175000
1!
1'
1)
1,
13
b101 5
b10111z00000000000000000 6
17
b10 <
b10001 =
#175100
1%
b0 +
1.
00
b1100000 1
#176000
0!
0'
0)
0,
03
b101 5
b10111z000000000000000000 6
07
b10 <
b10010 =
#177000
1!
1'
1)
1,
13
b101 5
b10111z000000000000000000 6
17
b10 <
b10010 =
#177100
b0 +
1.
b1100000 1
#178000
0!
0'
1(
0)
0,
03
b101 5
b10111z0000000000000000000 6
07
b10 <
b10011 =
#179000
1!
1'
1)
1,
13
b101 5
b10111z0000000000000000000 6
17
b10 <
b10011 =
#179100
0%
b0 +
0.
10
b1100000 1
#180000
0!
0'
0(
0)
0,
03
b101 5
b111z00000000000000000000 6
07
b10 <
b10100 =
#181000
1!
1'
1)
1,
13
b101 5
b111z00000000000000000000 6
17
b10 <
b10100 =
#181100
b0 +
0.
b1100000 1
#182000
0!
0'
1(
0)
0,
03
b101 5
b111z000000000000000000000 6
07
b10 <
b10101 =
#183000
1!
1'
1)
1,
13
b101 5
b111z000000000000000000000 6
17
b10 <
b10101 =
#183100
1%
b0 +
1.
00
b1100000 1
#184000
0!
0'
0)
0,
03
b101 5
b11z0000000000000000000000 6
07
b10 <
b10110 =
#185000
1!
1'
1)
1,
13
b101 5
b11z0000000000000000000000 6
17
b10 <
b10110 =
#185100
b0 +
1.
b1100000 1
#186000
0!
0'
0)
0,
03
b101 5
b1z00000000000000000000000 6
07
b10 <
b10111 =
#187000
1!
1'
1)
1,
13
b101 5
b1z00000000000000000000000 6
17
b10 <
b10111 =
#187100
0%
b0 +
0.
10
b1100000 1
#188000
0!
0'
z(
0)
0,
03
b101 5
bz000000000000000000000000 6
07
b10 <
b11000 =
#189000
1!
1'
1)
1,
13
b110 5
bz000000000000000000000000 6
17
b10 <
b11000 =
#189100
b0 +
0.
b1100000 1
#190000
0!
0(
0)
0,
03
b111 5
b0 6
17
b10 <
b0 =
#191000
1!
1(
1)
1,
13
b111 5
b1111111111111111111111111 6
17
b10 <
b1 =
#191100
1%
b0 +
1.
00
b1100000 1
#192000
0!
0)
0,
03
b111 5
b1111111111111111111111111 6
17
b10 <
b10 =
#193000
1!
1)
1,
13
b111 5
b1111111111111111111111111 6
17
b10 <
b11 =
#193100
b0 +
1.
b1100000 1
#194000
0!
0)
0,
03
b1 5
b1111111111111111111111111 6
17
b11 <
b100 =
#195000
1!
0(
1)
1,
13
b10 5
b0 6
17
b11 <
b0 =
#195100
0%
b0 +
0.
10
b1000000 1
#196000
0!
0'
0)
0,
03
b11 5
b0 6
07
b11 <
b0 =
#197000
1!
1'
1)
1,
13
b11 5
b0 6
17
b11 <
b1 =
#197100
b0 +
0.
b1000000 1
#198000
0!
0'
0)
0,
03
b11 5
b0 6
07
b11 <
b10 =
#199000
1!
1'
1)
1,
13
b100 5
b0 6
17
b11 <
b11 =
#199100
1%
b0 +
1.
00
b1000000 1
#200000
0!
0'
1(
0)
0,
03
b100 5
b110100z00010010z00000001z 6
07
b0 =
#201000
1!
1'
1)
1,
13
b101 5
b110100z00010010z00000001z 6
17
b0 =
#201100
b10000000000000 +
1.
b1000000 1
#202000
0!
0'
0)
0,
03
b101 5
b10100z00010010z00000001z0 6
07
b11 <
b1 =
#203000
1!
1'
1)
1,
13
b101 5
b10100z00010010z00000001z0 6
17
b11 <
b1 =
#203100
0%
b10000000000000 +
0.
10
b1000000 1
#204000
0!
0'
0(
0)
0,
03
b101 5
b100z00010010z00000001z00 6
07
b11 <
b10 =
#205000
1!
1'
1)
1,
13
b101 5
b100z00010010z00000001z00 6
17
b11 <
b10 =
#205100
b0 +
0.
b1000000 1
#206000
0!
0'
1(
0)
0,
03
b101 5
b100z00010010z00000001z000 6
07
b11 <
b11 =
#207000
1!
1'
1)
1,
13
b101 5
b100z00010010z00000001z000 6
17
b11 <
b11 =
#207100
1%
b0 +
1.
00
b1000000 1
#208000
0!
0'
0(
0)
0,
03
b101 5
b0z00010010z00000001z0000 6
07
b11 <
b100 =
#209000
1!
1'
1)
1,
13
b101 5
b0z00010010z00000001z0000 6
17
b11 <
b100 =
#209100
b0 +
1.
b1000000 1
#210000
0!
0'
0)
0,
03
b101 5
b0z00010010z00000001z00000 6
07
b11 <
b101 =
#211000
1!
1'
1)
1,
13
b101 5
b0z00010010z00000001z00000 6
17
b11 <
b101 =
#211100
0%
b0 +
0.
10
b1000000 1
#212000
0!
0'
z(
0)
0,
03
b101 5
bz00010010z00000001z000000 6
07
b11 <
b110 =
#213000
1!
1'
1)
1,
13
b101 5
bz00010010z00000001z000000 6
17
b11 <
b110 =
#213100
b0 +
0.
b1000000 1
#214000
0!
0'
0(
0)
0,
03
b101 5
b10010z00000001z0000000 6
07
b11 <
b111 =
#215000
1!
1'
1)
1,
13
b101 5
b10010z00000001z0000000 6
17
b11 <
b111 =
#215100
1%
b0 +
1.
00
b1000000 1
#216000
0!
0'
0)
0,
03
b101 5
b10010z00000001z00000000 6
07
b11 <
b1000 =
#217000
1!
1'
1)
1,
13
b101 5
b10010z00000001z00000000 6
17
b11 <
b1000 =
#217100
b0 +
1.
b1000000 1
#218000
0!
0'
0)
0,
03
b101 5
b10010z00000001z000000000 6
07
b11 <
b1001 =
#219000
1!
1'
1)
1,
13
b101 5
b10010z00000001z000000000 6
17
b11 <
b1001 =
#219100
0%
b0 +
0.
10
b1000000 1
#220000
0!
0'
1(
0)
0,
03
b101 5
b10010z00000001z0000000000 6
07
b11 <
b1010 =
#221000
1!
1'
1)
1,
13
b101 5
b10010z00000001z0000000000 6
17
b11 <
b1010 =
#221100
b0 +
0.
b1000000 1
#222000
0!
0'
0(
0)
0,
03
b101 5
b10z00000001z00000000000 6
07
b11 <
b1011 =
#223000
1!
1'
1)
1,
13
b101 5
b10z00000001z00000000000 6
17
b11 <
b1011 =
#223100
1%
b0 +
1.
00
b1000000 1
#224000
0!
0'
0)
0,
03
b101 5
b10z00000001z000000000000 6
07
b11 <
b1100 =
#225000
1!
1'
1)
1,
13
b101 5
b10z00000001z000000000000 6
17
b11 <
b1100 =
#225100
b0 +
1.
b1000000 1
#226000
0!
0'
1(
0)
0,
03
b101 5
b10z00000001z0000000000000 6
07
b11 <
b1101 =
#227000
1!
1'
1)
1,
13
b101 5
b10z00000001z0000000000000 6
17
b11 <
b1101 =
#227100
0%
b0 +
0.
10
b0 1
#228000
0!
0'
0(
0)
0,
03
b101 5
b0z00000001z00000000000000 6
07
b11 <
b1110 =
#229000
1!
1'
1)
1,
13
b101 5
b0z00000001z00000000000000 6
17
b11 <
b1110 =
#229100
b0 +
0.
1/
#230000
0!
0'
z(
0)
0,
03
b101 5
bz00000001z000000000000000 6
07
b11 <
b1111 =
#231000
1!
1'
1)
1,
13
b101 5
bz00000001z000000000000000 6
17
b11 <
b1111 =
#231100
1%
b0 +
1.
1/
00
#232000
0!
0'
0(
0)
0,
03
b101 5
b1z0000000000000000 6
07
b11 <
b10000 =
#233000
1!
1'
1)
1,
13
b101 5
b1z0000000000000000 6
17
b11 <
b10000 =
#233100
b100000000000000 +
1.
1/
